(kicad_pcb (version 20171130) (host pcbnew 5.1.12-1.fc35)

  (general
    (thickness 1.6)
    (drawings 195)
    (tracks 0)
    (zones 0)
    (modules 42)
    (nets 1)
  )

  (page A4)
  (layers
    (0 F.Cu signal hide)
    (31 B.Cu signal hide)
    (32 B.Adhes user hide)
    (33 F.Adhes user hide)
    (34 B.Paste user hide)
    (35 F.Paste user hide)
    (36 B.SilkS user)
    (37 F.SilkS user)
    (38 B.Mask user hide)
    (39 F.Mask user hide)
    (40 Dwgs.User user hide)
    (41 Cmts.User user hide)
    (42 Eco1.User user)
    (43 Eco2.User user hide)
    (44 Edge.Cuts user hide)
    (45 Margin user hide)
    (46 B.CrtYd user hide)
    (47 F.CrtYd user hide)
    (48 B.Fab user hide)
    (49 F.Fab user hide)
  )

  (setup
    (last_trace_width 0.254)
    (trace_clearance 0.2)
    (zone_clearance 0.508)
    (zone_45_only yes)
    (trace_min 0.2)
    (via_size 0.8)
    (via_drill 0.4)
    (via_min_size 0.4)
    (via_min_drill 0.3)
    (uvia_size 0.3)
    (uvia_drill 0.1)
    (uvias_allowed no)
    (uvia_min_size 0.2)
    (uvia_min_drill 0.1)
    (edge_width 0.05)
    (segment_width 0.2)
    (pcb_text_width 0.3)
    (pcb_text_size 1.5 1.5)
    (mod_edge_width 0.12)
    (mod_text_size 1 1)
    (mod_text_width 0.15)
    (pad_size 0.9 0.8)
    (pad_drill 0)
    (pad_to_mask_clearance 0)
    (aux_axis_origin 0 0)
    (grid_origin 148.5 105)
    (visible_elements FFFFFF7F)
    (pcbplotparams
      (layerselection 0x00430_7ffffffe)
      (usegerberextensions true)
      (usegerberattributes false)
      (usegerberadvancedattributes true)
      (creategerberjobfile true)
      (excludeedgelayer true)
      (linewidth 0.100000)
      (plotframeref false)
      (viasonmask false)
      (mode 1)
      (useauxorigin false)
      (hpglpennumber 1)
      (hpglpenspeed 20)
      (hpglpendiameter 15.000000)
      (psnegative false)
      (psa4output false)
      (plotreference false)
      (plotvalue false)
      (plotinvisibletext false)
      (padsonsilk false)
      (subtractmaskfromsilk true)
      (outputformat 3)
      (mirror false)
      (drillshape 0)
      (scaleselection 1)
      (outputdirectory "plate-case-exports/"))
  )

  (net 0 "")

  (net_class Default "This is the default net class."
    (clearance 0.2)
    (trace_width 0.254)
    (via_dia 0.8)
    (via_drill 0.4)
    (uvia_dia 0.3)
    (uvia_drill 0.1)
  )

  (net_class power ""
    (clearance 0.2)
    (trace_width 0.381)
    (via_dia 0.8)
    (via_drill 0.4)
    (uvia_dia 0.3)
    (uvia_drill 0.1)
  )

  (module MountingHole:MountingHole_3.5mm_Pad_Via (layer F.Cu) (tedit 60A47898) (tstamp 603D5488)
    (at 170.75 78.584)
    (descr "Mounting Hole 3.5mm")
    (tags "mounting hole 3.5mm")
    (attr virtual)
    (fp_text reference "" (at 0 0) (layer F.SilkS)
      (effects (font (size 1.27 1.27) (thickness 0.15)))
    )
    (fp_text value "" (at 0 0) (layer F.SilkS)
      (effects (font (size 1.27 1.27) (thickness 0.15)))
    )
    (fp_circle (center 0 0) (end 1.1 0) (layer F.SilkS) (width 0.15))
    (fp_circle (center 0 0) (end 1.1 0) (layer B.SilkS) (width 0.15))
    (fp_circle (center 0 0) (end 1.75 0) (layer Eco1.User) (width 0.15))
  )

  (module MountingHole:MountingHole_3.5mm_Pad_Via (layer F.Cu) (tedit 60A4788C) (tstamp 603D54C5)
    (at 126.25 78.583)
    (descr "Mounting Hole 3.5mm")
    (tags "mounting hole 3.5mm")
    (attr virtual)
    (fp_text reference "" (at 0 0) (layer F.SilkS)
      (effects (font (size 1.27 1.27) (thickness 0.15)))
    )
    (fp_text value "" (at 0 0) (layer F.SilkS)
      (effects (font (size 1.27 1.27) (thickness 0.15)))
    )
    (fp_circle (center 0 0) (end 1.1 0) (layer F.SilkS) (width 0.15))
    (fp_circle (center 0 0) (end 1.1 0) (layer B.SilkS) (width 0.15))
    (fp_circle (center 0 0) (end 1.75 0) (layer Eco1.User) (width 0.15))
  )

  (module MountingHole:MountingHole_3.5mm_Pad_Via (layer F.Cu) (tedit 60A4787C) (tstamp 603D540C)
    (at 172 148.355)
    (descr "Mounting Hole 3.5mm")
    (tags "mounting hole 3.5mm")
    (attr virtual)
    (fp_text reference "" (at 0 0) (layer F.SilkS)
      (effects (font (size 1.27 1.27) (thickness 0.15)))
    )
    (fp_text value "" (at 0 0) (layer F.SilkS)
      (effects (font (size 1.27 1.27) (thickness 0.15)))
    )
    (fp_circle (center 0 0) (end 1.1 0) (layer F.SilkS) (width 0.15))
    (fp_circle (center 0 0) (end 1.1 0) (layer B.SilkS) (width 0.15))
    (fp_circle (center 0 0) (end 1.75 0) (layer Eco1.User) (width 0.15))
  )

  (module MountingHole:MountingHole_3.5mm_Pad_Via (layer F.Cu) (tedit 60A4786B) (tstamp 603D53CF)
    (at 125 148.355)
    (descr "Mounting Hole 3.5mm")
    (tags "mounting hole 3.5mm")
    (attr virtual)
    (fp_text reference "" (at 0 0) (layer F.SilkS)
      (effects (font (size 1.27 1.27) (thickness 0.15)))
    )
    (fp_text value "" (at 0 0) (layer F.SilkS)
      (effects (font (size 1.27 1.27) (thickness 0.15)))
    )
    (fp_circle (center 0 0) (end 1.1 0) (layer F.SilkS) (width 0.15))
    (fp_circle (center 0 0) (end 1.1 0) (layer B.SilkS) (width 0.15))
    (fp_circle (center 0 0) (end 1.75 0) (layer Eco1.User) (width 0.15))
  )

  (module MountingHole:MountingHole_3.5mm_Pad_Via (layer F.Cu) (tedit 60A47662) (tstamp 603DB16D)
    (at 66 64)
    (descr "Mounting Hole 3.5mm")
    (tags "mounting hole 3.5mm")
    (attr virtual)
    (fp_text reference "" (at 0 0) (layer F.SilkS)
      (effects (font (size 1.27 1.27) (thickness 0.15)))
    )
    (fp_text value "" (at 0 0) (layer F.SilkS)
      (effects (font (size 1.27 1.27) (thickness 0.15)))
    )
    (fp_circle (center 0 0) (end 1.1 0) (layer B.SilkS) (width 0.15))
    (fp_circle (center 0 0) (end 1.1 0) (layer Eco1.User) (width 0.15))
  )

  (module MountingHole:MountingHole_3.5mm_Pad_Via (layer F.Cu) (tedit 60A4764F) (tstamp 603D5327)
    (at 55 113.5)
    (descr "Mounting Hole 3.5mm")
    (tags "mounting hole 3.5mm")
    (attr virtual)
    (fp_text reference "" (at 0 0) (layer F.SilkS)
      (effects (font (size 1.27 1.27) (thickness 0.15)))
    )
    (fp_text value "" (at 0 0) (layer F.SilkS)
      (effects (font (size 1.27 1.27) (thickness 0.15)))
    )
    (fp_circle (center 0 0) (end 1.1 0) (layer B.SilkS) (width 0.15))
    (fp_circle (center 0 0) (end 1.1 0) (layer Eco1.User) (width 0.15))
  )

  (module MountingHole:MountingHole_3.5mm_Pad_Via (layer F.Cu) (tedit 60A4736C) (tstamp 603D5097)
    (at 242 113.5)
    (descr "Mounting Hole 3.5mm")
    (tags "mounting hole 3.5mm")
    (attr virtual)
    (fp_text reference "" (at 0 0) (layer F.SilkS)
      (effects (font (size 1.27 1.27) (thickness 0.15)))
    )
    (fp_text value "" (at 0 0) (layer F.SilkS)
      (effects (font (size 1.27 1.27) (thickness 0.15)))
    )
    (fp_circle (center 0 0) (end 1.1 0) (layer B.SilkS) (width 0.15))
    (fp_circle (center 0 0) (end 1.1 0) (layer Eco1.User) (width 0.15))
  )

  (module MountingHole:MountingHole_3.5mm_Pad_Via (layer F.Cu) (tedit 60A4734D) (tstamp 603D4FFA)
    (at 231 64)
    (descr "Mounting Hole 3.5mm")
    (tags "mounting hole 3.5mm")
    (attr virtual)
    (fp_text reference "" (at 0 0) (layer F.SilkS)
      (effects (font (size 1.27 1.27) (thickness 0.15)))
    )
    (fp_text value "" (at 0 0) (layer F.SilkS)
      (effects (font (size 1.27 1.27) (thickness 0.15)))
    )
    (fp_circle (center 0 0) (end 1.1 0) (layer B.SilkS) (width 0.15))
    (fp_circle (center 0 0) (end 1.1 0) (layer Eco1.User) (width 0.15))
  )

  (module pg1350:PG1350 (layer F.Cu) (tedit 608F7572) (tstamp 60396326)
    (at 256.35658 109.083862 25)
    (path /6083C800)
    (attr smd)
    (fp_text reference "" (at 0 0 25) (layer F.SilkS)
      (effects (font (size 1.27 1.27) (thickness 0.15)))
    )
    (fp_text value 1N4148W (at 0 -8.2 25) (layer F.Fab)
      (effects (font (size 1 1) (thickness 0.15)))
    )
    (fp_line (start -7 1.95) (end -7 -11.35) (layer Eco1.User) (width 0.12))
    (fp_line (start 6.65 2.3) (end -6.65 2.3) (layer Eco1.User) (width 0.12))
    (fp_line (start 7 -11.35) (end 7 1.95) (layer Eco1.User) (width 0.12))
    (fp_line (start -6.65 -11.7) (end 6.65 -11.7) (layer Eco1.User) (width 0.12))
    (fp_arc (start 6.65 -11.35) (end 7 -11.35) (angle -90) (layer Eco1.User) (width 0.12))
    (fp_arc (start -6.65 -11.35) (end -6.65 -11.7) (angle -90) (layer Eco1.User) (width 0.12))
    (fp_arc (start -6.65 1.95) (end -7 1.95) (angle -90) (layer Eco1.User) (width 0.12))
    (fp_arc (start 6.65 1.95) (end 6.65 2.3) (angle -90) (layer Eco1.User) (width 0.12))
    (model ${KISYS3DMOD}/Diode_SMD.3dshapes/D_SOD-123F.wrl
      (at (xyz 0 0 0))
      (scale (xyz 1 1 1))
      (rotate (xyz 0 0 0))
    )
    (model ${KIPRJMOD}/pg1350.pretty/KailhChocPG1350.step
      (offset (xyz 0 4.5 2))
      (scale (xyz 1 1 1))
      (rotate (xyz 0 0 -180))
    )
    (model ${KIPRJMOD}/pg1350.pretty/MBK_Keycap_-_1u.step
      (offset (xyz 0 4.5 6))
      (scale (xyz 1 1 1))
      (rotate (xyz 0 0 0))
    )
  )

  (module pg1350:PG1350 (layer F.Cu) (tedit 608F7572) (tstamp 60397187)
    (at 172.507217 99.634837 25)
    (path /6083C70D)
    (attr smd)
    (fp_text reference "" (at 0 0 25) (layer F.SilkS)
      (effects (font (size 1.27 1.27) (thickness 0.15)))
    )
    (fp_text value 1N4148W (at 0 -8.2 25) (layer F.Fab)
      (effects (font (size 1 1) (thickness 0.15)))
    )
    (fp_line (start -7 1.95) (end -7 -11.35) (layer Eco1.User) (width 0.12))
    (fp_line (start 6.65 2.3) (end -6.65 2.3) (layer Eco1.User) (width 0.12))
    (fp_line (start 7 -11.35) (end 7 1.95) (layer Eco1.User) (width 0.12))
    (fp_line (start -6.65 -11.7) (end 6.65 -11.7) (layer Eco1.User) (width 0.12))
    (fp_arc (start 6.65 -11.35) (end 7 -11.35) (angle -90) (layer Eco1.User) (width 0.12))
    (fp_arc (start -6.65 -11.35) (end -6.65 -11.7) (angle -90) (layer Eco1.User) (width 0.12))
    (fp_arc (start -6.65 1.95) (end -7 1.95) (angle -90) (layer Eco1.User) (width 0.12))
    (fp_arc (start 6.65 1.95) (end 6.65 2.3) (angle -90) (layer Eco1.User) (width 0.12))
    (model ${KISYS3DMOD}/Diode_SMD.3dshapes/D_SOD-123F.wrl
      (at (xyz 0 0 0))
      (scale (xyz 1 1 1))
      (rotate (xyz 0 0 0))
    )
    (model ${KIPRJMOD}/pg1350.pretty/KailhChocPG1350.step
      (offset (xyz 0 4.5 2))
      (scale (xyz 1 1 1))
      (rotate (xyz 0 0 -180))
    )
    (model ${KIPRJMOD}/pg1350.pretty/MBK_Keycap_-_1u.step
      (offset (xyz 0 4.5 6))
      (scale (xyz 1 1 1))
      (rotate (xyz 0 0 0))
    )
  )

  (module pg1350:PG1350 (layer F.Cu) (tedit 608F7572) (tstamp 60396668)
    (at 179.69173 115.042067 25)
    (path /6083C71B)
    (attr smd)
    (fp_text reference "" (at 0 0 25) (layer F.SilkS)
      (effects (font (size 1.27 1.27) (thickness 0.15)))
    )
    (fp_text value 1N4148W (at 0 -8.2 25) (layer F.Fab)
      (effects (font (size 1 1) (thickness 0.15)))
    )
    (fp_line (start -7 1.95) (end -7 -11.35) (layer Eco1.User) (width 0.12))
    (fp_line (start 6.65 2.3) (end -6.65 2.3) (layer Eco1.User) (width 0.12))
    (fp_line (start 7 -11.35) (end 7 1.95) (layer Eco1.User) (width 0.12))
    (fp_line (start -6.65 -11.7) (end 6.65 -11.7) (layer Eco1.User) (width 0.12))
    (fp_arc (start 6.65 -11.35) (end 7 -11.35) (angle -90) (layer Eco1.User) (width 0.12))
    (fp_arc (start -6.65 -11.35) (end -6.65 -11.7) (angle -90) (layer Eco1.User) (width 0.12))
    (fp_arc (start -6.65 1.95) (end -7 1.95) (angle -90) (layer Eco1.User) (width 0.12))
    (fp_arc (start 6.65 1.95) (end 6.65 2.3) (angle -90) (layer Eco1.User) (width 0.12))
    (model ${KISYS3DMOD}/Diode_SMD.3dshapes/D_SOD-123F.wrl
      (at (xyz 0 0 0))
      (scale (xyz 1 1 1))
      (rotate (xyz 0 0 0))
    )
    (model ${KIPRJMOD}/pg1350.pretty/KailhChocPG1350.step
      (offset (xyz 0 4.5 2))
      (scale (xyz 1 1 1))
      (rotate (xyz 0 0 -180))
    )
    (model ${KIPRJMOD}/pg1350.pretty/MBK_Keycap_-_1u.step
      (offset (xyz 0 4.5 6))
      (scale (xyz 1 1 1))
      (rotate (xyz 0 0 0))
    )
  )

  (module pg1350:PG1350 (layer F.Cu) (tedit 608F7572) (tstamp 60395E9A)
    (at 102.054101 105.170355 335)
    (path /607BD104)
    (attr smd)
    (fp_text reference "" (at 0 0 335) (layer F.SilkS)
      (effects (font (size 1.27 1.27) (thickness 0.15)))
    )
    (fp_text value 1N4148W (at 0 -8.2 155) (layer F.Fab)
      (effects (font (size 1 1) (thickness 0.15)))
    )
    (fp_line (start -7 1.95) (end -7 -11.35) (layer Eco1.User) (width 0.12))
    (fp_line (start 6.65 2.3) (end -6.65 2.3) (layer Eco1.User) (width 0.12))
    (fp_line (start 7 -11.35) (end 7 1.95) (layer Eco1.User) (width 0.12))
    (fp_line (start -6.65 -11.7) (end 6.65 -11.7) (layer Eco1.User) (width 0.12))
    (fp_arc (start 6.65 -11.35) (end 7 -11.35) (angle -90) (layer Eco1.User) (width 0.12))
    (fp_arc (start -6.65 -11.35) (end -6.65 -11.7) (angle -90) (layer Eco1.User) (width 0.12))
    (fp_arc (start -6.65 1.95) (end -7 1.95) (angle -90) (layer Eco1.User) (width 0.12))
    (fp_arc (start 6.65 1.95) (end 6.65 2.3) (angle -90) (layer Eco1.User) (width 0.12))
    (model ${KISYS3DMOD}/Diode_SMD.3dshapes/D_SOD-123F.wrl
      (at (xyz 0 0 0))
      (scale (xyz 1 1 1))
      (rotate (xyz 0 0 0))
    )
    (model ${KIPRJMOD}/pg1350.pretty/KailhChocPG1350.step
      (offset (xyz 0 4.5 2))
      (scale (xyz 1 1 1))
      (rotate (xyz 0 0 -180))
    )
    (model ${KIPRJMOD}/pg1350.pretty/MBK_Keycap_-_1u.step
      (offset (xyz 0 4.5 6))
      (scale (xyz 1 1 1))
      (rotate (xyz 0 0 0))
    )
  )

  (module pg1350:PG1350 (layer F.Cu) (tedit 608F7572) (tstamp 60396E4B)
    (at 94.869591 120.577586 335)
    (path /607BD10D)
    (attr smd)
    (fp_text reference "" (at 0 0 335) (layer F.SilkS)
      (effects (font (size 1.27 1.27) (thickness 0.15)))
    )
    (fp_text value 1N4148W (at 0 -8.2 155) (layer F.Fab)
      (effects (font (size 1 1) (thickness 0.15)))
    )
    (fp_line (start -7 1.95) (end -7 -11.35) (layer Eco1.User) (width 0.12))
    (fp_line (start 6.65 2.3) (end -6.65 2.3) (layer Eco1.User) (width 0.12))
    (fp_line (start 7 -11.35) (end 7 1.95) (layer Eco1.User) (width 0.12))
    (fp_line (start -6.65 -11.7) (end 6.65 -11.7) (layer Eco1.User) (width 0.12))
    (fp_arc (start 6.65 -11.35) (end 7 -11.35) (angle -90) (layer Eco1.User) (width 0.12))
    (fp_arc (start -6.65 -11.35) (end -6.65 -11.7) (angle -90) (layer Eco1.User) (width 0.12))
    (fp_arc (start -6.65 1.95) (end -7 1.95) (angle -90) (layer Eco1.User) (width 0.12))
    (fp_arc (start 6.65 1.95) (end 6.65 2.3) (angle -90) (layer Eco1.User) (width 0.12))
    (model ${KISYS3DMOD}/Diode_SMD.3dshapes/D_SOD-123F.wrl
      (at (xyz 0 0 0))
      (scale (xyz 1 1 1))
      (rotate (xyz 0 0 0))
    )
    (model ${KIPRJMOD}/pg1350.pretty/KailhChocPG1350.step
      (offset (xyz 0 4.5 2))
      (scale (xyz 1 1 1))
      (rotate (xyz 0 0 -180))
    )
    (model ${KIPRJMOD}/pg1350.pretty/MBK_Keycap_-_1u.step
      (offset (xyz 0 4.5 6))
      (scale (xyz 1 1 1))
      (rotate (xyz 0 0 0))
    )
  )

  (module pg1350:PG1350 (layer F.Cu) (tedit 608F7572) (tstamp 60396CC5)
    (at 202.640139 142.959275 39)
    (path /6083C827)
    (attr smd)
    (fp_text reference "" (at 0 0 39) (layer F.SilkS)
      (effects (font (size 1.27 1.27) (thickness 0.15)))
    )
    (fp_text value 1N4148W (at 0 -8.2 39) (layer F.Fab)
      (effects (font (size 1 1) (thickness 0.15)))
    )
    (fp_line (start -7 1.95) (end -7 -11.35) (layer Eco1.User) (width 0.12))
    (fp_line (start 6.65 2.3) (end -6.65 2.3) (layer Eco1.User) (width 0.12))
    (fp_line (start 7 -11.35) (end 7 1.95) (layer Eco1.User) (width 0.12))
    (fp_line (start -6.65 -11.7) (end 6.65 -11.7) (layer Eco1.User) (width 0.12))
    (fp_arc (start 6.65 -11.35) (end 7 -11.35) (angle -90) (layer Eco1.User) (width 0.12))
    (fp_arc (start -6.65 -11.35) (end -6.65 -11.7) (angle -90) (layer Eco1.User) (width 0.12))
    (fp_arc (start -6.65 1.95) (end -7 1.95) (angle -90) (layer Eco1.User) (width 0.12))
    (fp_arc (start 6.65 1.95) (end 6.65 2.3) (angle -90) (layer Eco1.User) (width 0.12))
    (model ${KISYS3DMOD}/Diode_SMD.3dshapes/D_SOD-123F.wrl
      (at (xyz 0 0 0))
      (scale (xyz 1 1 1))
      (rotate (xyz 0 0 0))
    )
    (model ${KIPRJMOD}/pg1350.pretty/KailhChocPG1350.step
      (offset (xyz 0 4.5 2))
      (scale (xyz 1 1 1))
      (rotate (xyz 0 0 -180))
    )
    (model ${KIPRJMOD}/pg1350.pretty/MBK_Keycap_-_1u.step
      (offset (xyz 0 4.5 6))
      (scale (xyz 1 1 1))
      (rotate (xyz 0 0 0))
    )
  )

  (module pg1350:PG1350 (layer F.Cu) (tedit 608F7572) (tstamp 608F9779)
    (at 189.179268 156.683981 52)
    (path /6083C818)
    (attr smd)
    (fp_text reference "" (at 0 0 52) (layer F.SilkS)
      (effects (font (size 1.27 1.27) (thickness 0.15)))
    )
    (fp_text value 1N4148W (at 0 -8.2 52) (layer F.Fab)
      (effects (font (size 1 1) (thickness 0.15)))
    )
    (fp_line (start -7 1.95) (end -7 -11.35) (layer Eco1.User) (width 0.12))
    (fp_line (start 6.65 2.3) (end -6.65 2.3) (layer Eco1.User) (width 0.12))
    (fp_line (start 7 -11.35) (end 7 1.95) (layer Eco1.User) (width 0.12))
    (fp_line (start -6.65 -11.7) (end 6.65 -11.7) (layer Eco1.User) (width 0.12))
    (fp_arc (start 6.65 -11.35) (end 7 -11.35) (angle -90) (layer Eco1.User) (width 0.12))
    (fp_arc (start -6.65 -11.35) (end -6.65 -11.7) (angle -90) (layer Eco1.User) (width 0.12))
    (fp_arc (start -6.65 1.95) (end -7 1.95) (angle -90) (layer Eco1.User) (width 0.12))
    (fp_arc (start 6.65 1.95) (end 6.65 2.3) (angle -90) (layer Eco1.User) (width 0.12))
    (model ${KISYS3DMOD}/Diode_SMD.3dshapes/D_SOD-123F.wrl
      (at (xyz 0 0 0))
      (scale (xyz 1 1 1))
      (rotate (xyz 0 0 0))
    )
    (model ${KIPRJMOD}/pg1350.pretty/KailhChocPG1350.step
      (offset (xyz 0 4.5 2))
      (scale (xyz 1 1 1))
      (rotate (xyz 0 0 -180))
    )
    (model ${KIPRJMOD}/pg1350.pretty/MBK_Keycap_-_1u.step
      (offset (xyz 0 4.5 6))
      (scale (xyz 1 1 1))
      (rotate (xyz 0 0 0))
    )
  )

  (module pg1350:PG1350 (layer F.Cu) (tedit 608F7572) (tstamp 60396BD2)
    (at 107.914185 156.727429 308)
    (path /607D733E)
    (attr smd)
    (fp_text reference "" (at 0 0 308) (layer F.SilkS)
      (effects (font (size 1.27 1.27) (thickness 0.15)))
    )
    (fp_text value 1N4148W (at 0 -8.2 128) (layer F.Fab)
      (effects (font (size 1 1) (thickness 0.15)))
    )
    (fp_line (start -7 1.95) (end -7 -11.35) (layer Eco1.User) (width 0.12))
    (fp_line (start 6.65 2.3) (end -6.65 2.3) (layer Eco1.User) (width 0.12))
    (fp_line (start 7 -11.35) (end 7 1.95) (layer Eco1.User) (width 0.12))
    (fp_line (start -6.65 -11.7) (end 6.65 -11.7) (layer Eco1.User) (width 0.12))
    (fp_arc (start 6.65 -11.35) (end 7 -11.35) (angle -90) (layer Eco1.User) (width 0.12))
    (fp_arc (start -6.65 -11.35) (end -6.65 -11.7) (angle -90) (layer Eco1.User) (width 0.12))
    (fp_arc (start -6.65 1.95) (end -7 1.95) (angle -90) (layer Eco1.User) (width 0.12))
    (fp_arc (start 6.65 1.95) (end 6.65 2.3) (angle -90) (layer Eco1.User) (width 0.12))
    (model ${KISYS3DMOD}/Diode_SMD.3dshapes/D_SOD-123F.wrl
      (at (xyz 0 0 0))
      (scale (xyz 1 1 1))
      (rotate (xyz 0 0 0))
    )
    (model ${KIPRJMOD}/pg1350.pretty/KailhChocPG1350.step
      (offset (xyz 0 4.5 2))
      (scale (xyz 1 1 1))
      (rotate (xyz 0 0 -180))
    )
    (model ${KIPRJMOD}/pg1350.pretty/MBK_Keycap_-_1u.step
      (offset (xyz 0 4.5 6))
      (scale (xyz 1 1 1))
      (rotate (xyz 0 0 0))
    )
  )

  (module pg1350:PG1350 (layer F.Cu) (tedit 608F7572) (tstamp 60396266)
    (at 94.362684 142.96046 321)
    (path /607D7331)
    (attr smd)
    (fp_text reference "" (at 0 0 321) (layer F.SilkS)
      (effects (font (size 1.27 1.27) (thickness 0.15)))
    )
    (fp_text value 1N4148W (at 0 -8.2 141) (layer F.Fab)
      (effects (font (size 1 1) (thickness 0.15)))
    )
    (fp_line (start -7 1.95) (end -7 -11.35) (layer Eco1.User) (width 0.12))
    (fp_line (start 6.65 2.3) (end -6.65 2.3) (layer Eco1.User) (width 0.12))
    (fp_line (start 7 -11.35) (end 7 1.95) (layer Eco1.User) (width 0.12))
    (fp_line (start -6.65 -11.7) (end 6.65 -11.7) (layer Eco1.User) (width 0.12))
    (fp_arc (start 6.65 -11.35) (end 7 -11.35) (angle -90) (layer Eco1.User) (width 0.12))
    (fp_arc (start -6.65 -11.35) (end -6.65 -11.7) (angle -90) (layer Eco1.User) (width 0.12))
    (fp_arc (start -6.65 1.95) (end -7 1.95) (angle -90) (layer Eco1.User) (width 0.12))
    (fp_arc (start 6.65 1.95) (end 6.65 2.3) (angle -90) (layer Eco1.User) (width 0.12))
    (model ${KISYS3DMOD}/Diode_SMD.3dshapes/D_SOD-123F.wrl
      (at (xyz 0 0 0))
      (scale (xyz 1 1 1))
      (rotate (xyz 0 0 0))
    )
    (model ${KIPRJMOD}/pg1350.pretty/KailhChocPG1350.step
      (offset (xyz 0 4.5 2))
      (scale (xyz 1 1 1))
      (rotate (xyz 0 0 -180))
    )
    (model ${KIPRJMOD}/pg1350.pretty/MBK_Keycap_-_1u.step
      (offset (xyz 0 4.5 6))
      (scale (xyz 1 1 1))
      (rotate (xyz 0 0 0))
    )
  )

  (module pg1350:PG1350 (layer F.Cu) (tedit 608F7572) (tstamp 60396D88)
    (at 235.182929 106.268454 25)
    (path /6083C7C8)
    (attr smd)
    (fp_text reference "" (at 0 0 25) (layer F.SilkS)
      (effects (font (size 1.27 1.27) (thickness 0.15)))
    )
    (fp_text value 1N4148W (at 0 -8.2 25) (layer F.Fab)
      (effects (font (size 1 1) (thickness 0.15)))
    )
    (fp_line (start -7 1.95) (end -7 -11.35) (layer Eco1.User) (width 0.12))
    (fp_line (start 6.65 2.3) (end -6.65 2.3) (layer Eco1.User) (width 0.12))
    (fp_line (start 7 -11.35) (end 7 1.95) (layer Eco1.User) (width 0.12))
    (fp_line (start -6.65 -11.7) (end 6.65 -11.7) (layer Eco1.User) (width 0.12))
    (fp_arc (start 6.65 -11.35) (end 7 -11.35) (angle -90) (layer Eco1.User) (width 0.12))
    (fp_arc (start -6.65 -11.35) (end -6.65 -11.7) (angle -90) (layer Eco1.User) (width 0.12))
    (fp_arc (start -6.65 1.95) (end -7 1.95) (angle -90) (layer Eco1.User) (width 0.12))
    (fp_arc (start 6.65 1.95) (end 6.65 2.3) (angle -90) (layer Eco1.User) (width 0.12))
    (model ${KISYS3DMOD}/Diode_SMD.3dshapes/D_SOD-123F.wrl
      (at (xyz 0 0 0))
      (scale (xyz 1 1 1))
      (rotate (xyz 0 0 0))
    )
    (model ${KIPRJMOD}/pg1350.pretty/KailhChocPG1350.step
      (offset (xyz 0 4.5 2))
      (scale (xyz 1 1 1))
      (rotate (xyz 0 0 -180))
    )
    (model ${KIPRJMOD}/pg1350.pretty/MBK_Keycap_-_1u.step
      (offset (xyz 0 4.5 6))
      (scale (xyz 1 1 1))
      (rotate (xyz 0 0 0))
    )
  )

  (module pg1350:PG1350 (layer F.Cu) (tedit 608F7572) (tstamp 6039656F)
    (at 216.122369 107.984583 25)
    (path /6083C78F)
    (attr smd)
    (fp_text reference "" (at 0 0 25) (layer F.SilkS)
      (effects (font (size 1.27 1.27) (thickness 0.15)))
    )
    (fp_text value 1N4148W (at 0 -8.2 25) (layer F.Fab)
      (effects (font (size 1 1) (thickness 0.15)))
    )
    (fp_line (start -7 1.95) (end -7 -11.35) (layer Eco1.User) (width 0.12))
    (fp_line (start 6.65 2.3) (end -6.65 2.3) (layer Eco1.User) (width 0.12))
    (fp_line (start 7 -11.35) (end 7 1.95) (layer Eco1.User) (width 0.12))
    (fp_line (start -6.65 -11.7) (end 6.65 -11.7) (layer Eco1.User) (width 0.12))
    (fp_arc (start 6.65 -11.35) (end 7 -11.35) (angle -90) (layer Eco1.User) (width 0.12))
    (fp_arc (start -6.65 -11.35) (end -6.65 -11.7) (angle -90) (layer Eco1.User) (width 0.12))
    (fp_arc (start -6.65 1.95) (end -7 1.95) (angle -90) (layer Eco1.User) (width 0.12))
    (fp_arc (start 6.65 1.95) (end 6.65 2.3) (angle -90) (layer Eco1.User) (width 0.12))
    (model ${KISYS3DMOD}/Diode_SMD.3dshapes/D_SOD-123F.wrl
      (at (xyz 0 0 0))
      (scale (xyz 1 1 1))
      (rotate (xyz 0 0 0))
    )
    (model ${KIPRJMOD}/pg1350.pretty/KailhChocPG1350.step
      (offset (xyz 0 4.5 2))
      (scale (xyz 1 1 1))
      (rotate (xyz 0 0 -180))
    )
    (model ${KIPRJMOD}/pg1350.pretty/MBK_Keycap_-_1u.step
      (offset (xyz 0 4.5 6))
      (scale (xyz 1 1 1))
      (rotate (xyz 0 0 0))
    )
  )

  (module pg1350:PG1350 (layer F.Cu) (tedit 608F7572) (tstamp 603963E6)
    (at 202.133232 120.576403 25)
    (path /6083C756)
    (attr smd)
    (fp_text reference "" (at 0 0 25) (layer F.SilkS)
      (effects (font (size 1.27 1.27) (thickness 0.15)))
    )
    (fp_text value 1N4148W (at 0 -8.2 25) (layer F.Fab)
      (effects (font (size 1 1) (thickness 0.15)))
    )
    (fp_line (start -7 1.95) (end -7 -11.35) (layer Eco1.User) (width 0.12))
    (fp_line (start 6.65 2.3) (end -6.65 2.3) (layer Eco1.User) (width 0.12))
    (fp_line (start 7 -11.35) (end 7 1.95) (layer Eco1.User) (width 0.12))
    (fp_line (start -6.65 -11.7) (end 6.65 -11.7) (layer Eco1.User) (width 0.12))
    (fp_arc (start 6.65 -11.35) (end 7 -11.35) (angle -90) (layer Eco1.User) (width 0.12))
    (fp_arc (start -6.65 -11.35) (end -6.65 -11.7) (angle -90) (layer Eco1.User) (width 0.12))
    (fp_arc (start -6.65 1.95) (end -7 1.95) (angle -90) (layer Eco1.User) (width 0.12))
    (fp_arc (start 6.65 1.95) (end 6.65 2.3) (angle -90) (layer Eco1.User) (width 0.12))
    (model ${KISYS3DMOD}/Diode_SMD.3dshapes/D_SOD-123F.wrl
      (at (xyz 0 0 0))
      (scale (xyz 1 1 1))
      (rotate (xyz 0 0 0))
    )
    (model ${KIPRJMOD}/pg1350.pretty/KailhChocPG1350.step
      (offset (xyz 0 4.5 2))
      (scale (xyz 1 1 1))
      (rotate (xyz 0 0 -180))
    )
    (model ${KIPRJMOD}/pg1350.pretty/MBK_Keycap_-_1u.step
      (offset (xyz 0 4.5 6))
      (scale (xyz 1 1 1))
      (rotate (xyz 0 0 0))
    )
  )

  (module pg1350:PG1350 (layer F.Cu) (tedit 608F7572) (tstamp 60395CFF)
    (at 186.876238 130.449298 25)
    (path /6083C728)
    (attr smd)
    (fp_text reference "" (at 0 0 25) (layer F.SilkS)
      (effects (font (size 1.27 1.27) (thickness 0.15)))
    )
    (fp_text value 1N4148W (at 0 -8.2 25) (layer F.Fab)
      (effects (font (size 1 1) (thickness 0.15)))
    )
    (fp_line (start -7 1.95) (end -7 -11.35) (layer Eco1.User) (width 0.12))
    (fp_line (start 6.65 2.3) (end -6.65 2.3) (layer Eco1.User) (width 0.12))
    (fp_line (start 7 -11.35) (end 7 1.95) (layer Eco1.User) (width 0.12))
    (fp_line (start -6.65 -11.7) (end 6.65 -11.7) (layer Eco1.User) (width 0.12))
    (fp_arc (start 6.65 -11.35) (end 7 -11.35) (angle -90) (layer Eco1.User) (width 0.12))
    (fp_arc (start -6.65 -11.35) (end -6.65 -11.7) (angle -90) (layer Eco1.User) (width 0.12))
    (fp_arc (start -6.65 1.95) (end -7 1.95) (angle -90) (layer Eco1.User) (width 0.12))
    (fp_arc (start 6.65 1.95) (end 6.65 2.3) (angle -90) (layer Eco1.User) (width 0.12))
    (model ${KISYS3DMOD}/Diode_SMD.3dshapes/D_SOD-123F.wrl
      (at (xyz 0 0 0))
      (scale (xyz 1 1 1))
      (rotate (xyz 0 0 0))
    )
    (model ${KIPRJMOD}/pg1350.pretty/KailhChocPG1350.step
      (offset (xyz 0 4.5 2))
      (scale (xyz 1 1 1))
      (rotate (xyz 0 0 -180))
    )
    (model ${KIPRJMOD}/pg1350.pretty/MBK_Keycap_-_1u.step
      (offset (xyz 0 4.5 6))
      (scale (xyz 1 1 1))
      (rotate (xyz 0 0 0))
    )
  )

  (module pg1350:PG1350 (layer F.Cu) (tedit 608F7572) (tstamp 60395C3F)
    (at 110.126586 130.450486 335)
    (path /607C498F)
    (attr smd)
    (fp_text reference "" (at 0 0 335) (layer F.SilkS)
      (effects (font (size 1.27 1.27) (thickness 0.15)))
    )
    (fp_text value 1N4148W (at 0 -8.2 155) (layer F.Fab)
      (effects (font (size 1 1) (thickness 0.15)))
    )
    (fp_line (start -7 1.95) (end -7 -11.35) (layer Eco1.User) (width 0.12))
    (fp_line (start 6.65 2.3) (end -6.65 2.3) (layer Eco1.User) (width 0.12))
    (fp_line (start 7 -11.35) (end 7 1.95) (layer Eco1.User) (width 0.12))
    (fp_line (start -6.65 -11.7) (end 6.65 -11.7) (layer Eco1.User) (width 0.12))
    (fp_arc (start 6.65 -11.35) (end 7 -11.35) (angle -90) (layer Eco1.User) (width 0.12))
    (fp_arc (start -6.65 -11.35) (end -6.65 -11.7) (angle -90) (layer Eco1.User) (width 0.12))
    (fp_arc (start -6.65 1.95) (end -7 1.95) (angle -90) (layer Eco1.User) (width 0.12))
    (fp_arc (start 6.65 1.95) (end 6.65 2.3) (angle -90) (layer Eco1.User) (width 0.12))
    (model ${KISYS3DMOD}/Diode_SMD.3dshapes/D_SOD-123F.wrl
      (at (xyz 0 0 0))
      (scale (xyz 1 1 1))
      (rotate (xyz 0 0 0))
    )
    (model ${KIPRJMOD}/pg1350.pretty/KailhChocPG1350.step
      (offset (xyz 0 4.5 2))
      (scale (xyz 1 1 1))
      (rotate (xyz 0 0 -180))
    )
    (model ${KIPRJMOD}/pg1350.pretty/MBK_Keycap_-_1u.step
      (offset (xyz 0 4.5 6))
      (scale (xyz 1 1 1))
      (rotate (xyz 0 0 0))
    )
  )

  (module pg1350:PG1350 (layer F.Cu) (tedit 608F7572) (tstamp 60395B7F)
    (at 80.880449 107.985765 335)
    (path /607B7F4C)
    (attr smd)
    (fp_text reference "" (at 0 0 335) (layer F.SilkS)
      (effects (font (size 1.27 1.27) (thickness 0.15)))
    )
    (fp_text value 1N4148W (at 0 -8.2 155) (layer F.Fab)
      (effects (font (size 1 1) (thickness 0.15)))
    )
    (fp_line (start -7 1.95) (end -7 -11.35) (layer Eco1.User) (width 0.12))
    (fp_line (start 6.65 2.3) (end -6.65 2.3) (layer Eco1.User) (width 0.12))
    (fp_line (start 7 -11.35) (end 7 1.95) (layer Eco1.User) (width 0.12))
    (fp_line (start -6.65 -11.7) (end 6.65 -11.7) (layer Eco1.User) (width 0.12))
    (fp_arc (start 6.65 -11.35) (end 7 -11.35) (angle -90) (layer Eco1.User) (width 0.12))
    (fp_arc (start -6.65 -11.35) (end -6.65 -11.7) (angle -90) (layer Eco1.User) (width 0.12))
    (fp_arc (start -6.65 1.95) (end -7 1.95) (angle -90) (layer Eco1.User) (width 0.12))
    (fp_arc (start 6.65 1.95) (end 6.65 2.3) (angle -90) (layer Eco1.User) (width 0.12))
    (model ${KISYS3DMOD}/Diode_SMD.3dshapes/D_SOD-123F.wrl
      (at (xyz 0 0 0))
      (scale (xyz 1 1 1))
      (rotate (xyz 0 0 0))
    )
    (model ${KIPRJMOD}/pg1350.pretty/KailhChocPG1350.step
      (offset (xyz 0 4.5 2))
      (scale (xyz 1 1 1))
      (rotate (xyz 0 0 -180))
    )
    (model ${KIPRJMOD}/pg1350.pretty/MBK_Keycap_-_1u.step
      (offset (xyz 0 4.5 6))
      (scale (xyz 1 1 1))
      (rotate (xyz 0 0 0))
    )
  )

  (module pg1350:PG1350 (layer F.Cu) (tedit 608F7572) (tstamp 60395ABF)
    (at 61.819891 106.269639 335)
    (path /607A34F3)
    (attr smd)
    (fp_text reference "" (at 0 0 335) (layer F.SilkS)
      (effects (font (size 1.27 1.27) (thickness 0.15)))
    )
    (fp_text value 1N4148W (at 0 -8.2 155) (layer F.Fab)
      (effects (font (size 1 1) (thickness 0.15)))
    )
    (fp_line (start -7 1.95) (end -7 -11.35) (layer Eco1.User) (width 0.12))
    (fp_line (start 6.65 2.3) (end -6.65 2.3) (layer Eco1.User) (width 0.12))
    (fp_line (start 7 -11.35) (end 7 1.95) (layer Eco1.User) (width 0.12))
    (fp_line (start -6.65 -11.7) (end 6.65 -11.7) (layer Eco1.User) (width 0.12))
    (fp_arc (start 6.65 -11.35) (end 7 -11.35) (angle -90) (layer Eco1.User) (width 0.12))
    (fp_arc (start -6.65 -11.35) (end -6.65 -11.7) (angle -90) (layer Eco1.User) (width 0.12))
    (fp_arc (start -6.65 1.95) (end -7 1.95) (angle -90) (layer Eco1.User) (width 0.12))
    (fp_arc (start 6.65 1.95) (end 6.65 2.3) (angle -90) (layer Eco1.User) (width 0.12))
    (model ${KISYS3DMOD}/Diode_SMD.3dshapes/D_SOD-123F.wrl
      (at (xyz 0 0 0))
      (scale (xyz 1 1 1))
      (rotate (xyz 0 0 0))
    )
    (model ${KIPRJMOD}/pg1350.pretty/KailhChocPG1350.step
      (offset (xyz 0 4.5 2))
      (scale (xyz 1 1 1))
      (rotate (xyz 0 0 -180))
    )
    (model ${KIPRJMOD}/pg1350.pretty/MBK_Keycap_-_1u.step
      (offset (xyz 0 4.5 6))
      (scale (xyz 1 1 1))
      (rotate (xyz 0 0 0))
    )
  )

  (module pg1350:PG1350 (layer F.Cu) (tedit 608F7572) (tstamp 60396992)
    (at 40.646242 109.085047 335)
    (path /6079370C)
    (attr smd)
    (fp_text reference "" (at 0 0 335) (layer F.SilkS)
      (effects (font (size 1.27 1.27) (thickness 0.15)))
    )
    (fp_text value 1N4148W (at 0 -8.2 155) (layer F.Fab)
      (effects (font (size 1 1) (thickness 0.15)))
    )
    (fp_line (start -7 1.95) (end -7 -11.35) (layer Eco1.User) (width 0.12))
    (fp_line (start 6.65 2.3) (end -6.65 2.3) (layer Eco1.User) (width 0.12))
    (fp_line (start 7 -11.35) (end 7 1.95) (layer Eco1.User) (width 0.12))
    (fp_line (start -6.65 -11.7) (end 6.65 -11.7) (layer Eco1.User) (width 0.12))
    (fp_arc (start 6.65 -11.35) (end 7 -11.35) (angle -90) (layer Eco1.User) (width 0.12))
    (fp_arc (start -6.65 -11.35) (end -6.65 -11.7) (angle -90) (layer Eco1.User) (width 0.12))
    (fp_arc (start -6.65 1.95) (end -7 1.95) (angle -90) (layer Eco1.User) (width 0.12))
    (fp_arc (start 6.65 1.95) (end 6.65 2.3) (angle -90) (layer Eco1.User) (width 0.12))
    (model ${KISYS3DMOD}/Diode_SMD.3dshapes/D_SOD-123F.wrl
      (at (xyz 0 0 0))
      (scale (xyz 1 1 1))
      (rotate (xyz 0 0 0))
    )
    (model ${KIPRJMOD}/pg1350.pretty/KailhChocPG1350.step
      (offset (xyz 0 4.5 2))
      (scale (xyz 1 1 1))
      (rotate (xyz 0 0 -180))
    )
    (model ${KIPRJMOD}/pg1350.pretty/MBK_Keycap_-_1u.step
      (offset (xyz 0 4.5 6))
      (scale (xyz 1 1 1))
      (rotate (xyz 0 0 0))
    )
  )

  (module pg1350:PG1350 (layer F.Cu) (tedit 608F7572) (tstamp 603968D2)
    (at 249.172073 93.676631 25)
    (path /6083C7F3)
    (attr smd)
    (fp_text reference "" (at 0 0 25) (layer F.SilkS)
      (effects (font (size 1.27 1.27) (thickness 0.15)))
    )
    (fp_text value 1N4148W (at 0 -8.2 25) (layer F.Fab)
      (effects (font (size 1 1) (thickness 0.15)))
    )
    (fp_line (start -7 1.95) (end -7 -11.35) (layer Eco1.User) (width 0.12))
    (fp_line (start 6.65 2.3) (end -6.65 2.3) (layer Eco1.User) (width 0.12))
    (fp_line (start 7 -11.35) (end 7 1.95) (layer Eco1.User) (width 0.12))
    (fp_line (start -6.65 -11.7) (end 6.65 -11.7) (layer Eco1.User) (width 0.12))
    (fp_arc (start 6.65 -11.35) (end 7 -11.35) (angle -90) (layer Eco1.User) (width 0.12))
    (fp_arc (start -6.65 -11.35) (end -6.65 -11.7) (angle -90) (layer Eco1.User) (width 0.12))
    (fp_arc (start -6.65 1.95) (end -7 1.95) (angle -90) (layer Eco1.User) (width 0.12))
    (fp_arc (start 6.65 1.95) (end 6.65 2.3) (angle -90) (layer Eco1.User) (width 0.12))
    (model ${KISYS3DMOD}/Diode_SMD.3dshapes/D_SOD-123F.wrl
      (at (xyz 0 0 0))
      (scale (xyz 1 1 1))
      (rotate (xyz 0 0 0))
    )
    (model ${KIPRJMOD}/pg1350.pretty/KailhChocPG1350.step
      (offset (xyz 0 4.5 2))
      (scale (xyz 1 1 1))
      (rotate (xyz 0 0 -180))
    )
    (model ${KIPRJMOD}/pg1350.pretty/MBK_Keycap_-_1u.step
      (offset (xyz 0 4.5 6))
      (scale (xyz 1 1 1))
      (rotate (xyz 0 0 0))
    )
  )

  (module pg1350:PG1350 (layer F.Cu) (tedit 608F7572) (tstamp 6039680F)
    (at 227.998421 90.861221 25)
    (path /6083C7BB)
    (attr smd)
    (fp_text reference "" (at 0 0 25) (layer F.SilkS)
      (effects (font (size 1.27 1.27) (thickness 0.15)))
    )
    (fp_text value 1N4148W (at 0 -8.2 25) (layer F.Fab)
      (effects (font (size 1 1) (thickness 0.15)))
    )
    (fp_line (start -7 1.95) (end -7 -11.35) (layer Eco1.User) (width 0.12))
    (fp_line (start 6.65 2.3) (end -6.65 2.3) (layer Eco1.User) (width 0.12))
    (fp_line (start 7 -11.35) (end 7 1.95) (layer Eco1.User) (width 0.12))
    (fp_line (start -6.65 -11.7) (end 6.65 -11.7) (layer Eco1.User) (width 0.12))
    (fp_arc (start 6.65 -11.35) (end 7 -11.35) (angle -90) (layer Eco1.User) (width 0.12))
    (fp_arc (start -6.65 -11.35) (end -6.65 -11.7) (angle -90) (layer Eco1.User) (width 0.12))
    (fp_arc (start -6.65 1.95) (end -7 1.95) (angle -90) (layer Eco1.User) (width 0.12))
    (fp_arc (start 6.65 1.95) (end 6.65 2.3) (angle -90) (layer Eco1.User) (width 0.12))
    (model ${KISYS3DMOD}/Diode_SMD.3dshapes/D_SOD-123F.wrl
      (at (xyz 0 0 0))
      (scale (xyz 1 1 1))
      (rotate (xyz 0 0 0))
    )
    (model ${KIPRJMOD}/pg1350.pretty/KailhChocPG1350.step
      (offset (xyz 0 4.5 2))
      (scale (xyz 1 1 1))
      (rotate (xyz 0 0 -180))
    )
    (model ${KIPRJMOD}/pg1350.pretty/MBK_Keycap_-_1u.step
      (offset (xyz 0 4.5 6))
      (scale (xyz 1 1 1))
      (rotate (xyz 0 0 0))
    )
  )

  (module pg1350:PG1350 (layer F.Cu) (tedit 608F7572) (tstamp 6039674C)
    (at 208.937861 92.57735 25)
    (path /6083C782)
    (attr smd)
    (fp_text reference "" (at 0 0 25) (layer F.SilkS)
      (effects (font (size 1.27 1.27) (thickness 0.15)))
    )
    (fp_text value 1N4148W (at 0 -8.2 25) (layer F.Fab)
      (effects (font (size 1 1) (thickness 0.15)))
    )
    (fp_line (start -7 1.95) (end -7 -11.35) (layer Eco1.User) (width 0.12))
    (fp_line (start 6.65 2.3) (end -6.65 2.3) (layer Eco1.User) (width 0.12))
    (fp_line (start 7 -11.35) (end 7 1.95) (layer Eco1.User) (width 0.12))
    (fp_line (start -6.65 -11.7) (end 6.65 -11.7) (layer Eco1.User) (width 0.12))
    (fp_arc (start 6.65 -11.35) (end 7 -11.35) (angle -90) (layer Eco1.User) (width 0.12))
    (fp_arc (start -6.65 -11.35) (end -6.65 -11.7) (angle -90) (layer Eco1.User) (width 0.12))
    (fp_arc (start -6.65 1.95) (end -7 1.95) (angle -90) (layer Eco1.User) (width 0.12))
    (fp_arc (start 6.65 1.95) (end 6.65 2.3) (angle -90) (layer Eco1.User) (width 0.12))
    (model ${KISYS3DMOD}/Diode_SMD.3dshapes/D_SOD-123F.wrl
      (at (xyz 0 0 0))
      (scale (xyz 1 1 1))
      (rotate (xyz 0 0 0))
    )
    (model ${KIPRJMOD}/pg1350.pretty/KailhChocPG1350.step
      (offset (xyz 0 4.5 2))
      (scale (xyz 1 1 1))
      (rotate (xyz 0 0 -180))
    )
    (model ${KIPRJMOD}/pg1350.pretty/MBK_Keycap_-_1u.step
      (offset (xyz 0 4.5 6))
      (scale (xyz 1 1 1))
      (rotate (xyz 0 0 0))
    )
  )

  (module pg1350:PG1350 (layer F.Cu) (tedit 608F7572) (tstamp 60396F74)
    (at 194.948722 105.16917 25)
    (path /6083C749)
    (attr smd)
    (fp_text reference "" (at 0 0 25) (layer F.SilkS)
      (effects (font (size 1.27 1.27) (thickness 0.15)))
    )
    (fp_text value 1N4148W (at 0 -8.2 25) (layer F.Fab)
      (effects (font (size 1 1) (thickness 0.15)))
    )
    (fp_line (start -7 1.95) (end -7 -11.35) (layer Eco1.User) (width 0.12))
    (fp_line (start 6.65 2.3) (end -6.65 2.3) (layer Eco1.User) (width 0.12))
    (fp_line (start 7 -11.35) (end 7 1.95) (layer Eco1.User) (width 0.12))
    (fp_line (start -6.65 -11.7) (end 6.65 -11.7) (layer Eco1.User) (width 0.12))
    (fp_arc (start 6.65 -11.35) (end 7 -11.35) (angle -90) (layer Eco1.User) (width 0.12))
    (fp_arc (start -6.65 -11.35) (end -6.65 -11.7) (angle -90) (layer Eco1.User) (width 0.12))
    (fp_arc (start -6.65 1.95) (end -7 1.95) (angle -90) (layer Eco1.User) (width 0.12))
    (fp_arc (start 6.65 1.95) (end 6.65 2.3) (angle -90) (layer Eco1.User) (width 0.12))
    (model ${KISYS3DMOD}/Diode_SMD.3dshapes/D_SOD-123F.wrl
      (at (xyz 0 0 0))
      (scale (xyz 1 1 1))
      (rotate (xyz 0 0 0))
    )
    (model ${KIPRJMOD}/pg1350.pretty/KailhChocPG1350.step
      (offset (xyz 0 4.5 2))
      (scale (xyz 1 1 1))
      (rotate (xyz 0 0 -180))
    )
    (model ${KIPRJMOD}/pg1350.pretty/MBK_Keycap_-_1u.step
      (offset (xyz 0 4.5 6))
      (scale (xyz 1 1 1))
      (rotate (xyz 0 0 0))
    )
  )

  (module pg1350:PG1350 (layer F.Cu) (tedit 608F7572) (tstamp 603959B1)
    (at 117.311094 115.043253 335)
    (path /607C4986)
    (attr smd)
    (fp_text reference "" (at 0 0 335) (layer F.SilkS)
      (effects (font (size 1.27 1.27) (thickness 0.15)))
    )
    (fp_text value 1N4148W (at 0 -8.2 155) (layer F.Fab)
      (effects (font (size 1 1) (thickness 0.15)))
    )
    (fp_line (start -7 1.95) (end -7 -11.35) (layer Eco1.User) (width 0.12))
    (fp_line (start 6.65 2.3) (end -6.65 2.3) (layer Eco1.User) (width 0.12))
    (fp_line (start 7 -11.35) (end 7 1.95) (layer Eco1.User) (width 0.12))
    (fp_line (start -6.65 -11.7) (end 6.65 -11.7) (layer Eco1.User) (width 0.12))
    (fp_arc (start 6.65 -11.35) (end 7 -11.35) (angle -90) (layer Eco1.User) (width 0.12))
    (fp_arc (start -6.65 -11.35) (end -6.65 -11.7) (angle -90) (layer Eco1.User) (width 0.12))
    (fp_arc (start -6.65 1.95) (end -7 1.95) (angle -90) (layer Eco1.User) (width 0.12))
    (fp_arc (start 6.65 1.95) (end 6.65 2.3) (angle -90) (layer Eco1.User) (width 0.12))
    (model ${KISYS3DMOD}/Diode_SMD.3dshapes/D_SOD-123F.wrl
      (at (xyz 0 0 0))
      (scale (xyz 1 1 1))
      (rotate (xyz 0 0 0))
    )
    (model ${KIPRJMOD}/pg1350.pretty/KailhChocPG1350.step
      (offset (xyz 0 4.5 2))
      (scale (xyz 1 1 1))
      (rotate (xyz 0 0 -180))
    )
    (model ${KIPRJMOD}/pg1350.pretty/MBK_Keycap_-_1u.step
      (offset (xyz 0 4.5 6))
      (scale (xyz 1 1 1))
      (rotate (xyz 0 0 0))
    )
  )

  (module pg1350:PG1350 (layer F.Cu) (tedit 608F7572) (tstamp 603958F1)
    (at 88.064962 92.578533 335)
    (path /607B7F43)
    (attr smd)
    (fp_text reference "" (at 0 0 335) (layer F.SilkS)
      (effects (font (size 1.27 1.27) (thickness 0.15)))
    )
    (fp_text value 1N4148W (at 0 -8.2 155) (layer F.Fab)
      (effects (font (size 1 1) (thickness 0.15)))
    )
    (fp_line (start -7 1.95) (end -7 -11.35) (layer Eco1.User) (width 0.12))
    (fp_line (start 6.65 2.3) (end -6.65 2.3) (layer Eco1.User) (width 0.12))
    (fp_line (start 7 -11.35) (end 7 1.95) (layer Eco1.User) (width 0.12))
    (fp_line (start -6.65 -11.7) (end 6.65 -11.7) (layer Eco1.User) (width 0.12))
    (fp_arc (start 6.65 -11.35) (end 7 -11.35) (angle -90) (layer Eco1.User) (width 0.12))
    (fp_arc (start -6.65 -11.35) (end -6.65 -11.7) (angle -90) (layer Eco1.User) (width 0.12))
    (fp_arc (start -6.65 1.95) (end -7 1.95) (angle -90) (layer Eco1.User) (width 0.12))
    (fp_arc (start 6.65 1.95) (end 6.65 2.3) (angle -90) (layer Eco1.User) (width 0.12))
    (model ${KISYS3DMOD}/Diode_SMD.3dshapes/D_SOD-123F.wrl
      (at (xyz 0 0 0))
      (scale (xyz 1 1 1))
      (rotate (xyz 0 0 0))
    )
    (model ${KIPRJMOD}/pg1350.pretty/KailhChocPG1350.step
      (offset (xyz 0 4.5 2))
      (scale (xyz 1 1 1))
      (rotate (xyz 0 0 -180))
    )
    (model ${KIPRJMOD}/pg1350.pretty/MBK_Keycap_-_1u.step
      (offset (xyz 0 4.5 6))
      (scale (xyz 1 1 1))
      (rotate (xyz 0 0 0))
    )
  )

  (module pg1350:PG1350 (layer F.Cu) (tedit 608F7572) (tstamp 6039582E)
    (at 69.004403 90.862405 335)
    (path /607A34EA)
    (attr smd)
    (fp_text reference "" (at 0 0 335) (layer F.SilkS)
      (effects (font (size 1.27 1.27) (thickness 0.15)))
    )
    (fp_text value 1N4148W (at 0 -8.2 155) (layer F.Fab)
      (effects (font (size 1 1) (thickness 0.15)))
    )
    (fp_line (start -7 1.95) (end -7 -11.35) (layer Eco1.User) (width 0.12))
    (fp_line (start 6.65 2.3) (end -6.65 2.3) (layer Eco1.User) (width 0.12))
    (fp_line (start 7 -11.35) (end 7 1.95) (layer Eco1.User) (width 0.12))
    (fp_line (start -6.65 -11.7) (end 6.65 -11.7) (layer Eco1.User) (width 0.12))
    (fp_arc (start 6.65 -11.35) (end 7 -11.35) (angle -90) (layer Eco1.User) (width 0.12))
    (fp_arc (start -6.65 -11.35) (end -6.65 -11.7) (angle -90) (layer Eco1.User) (width 0.12))
    (fp_arc (start -6.65 1.95) (end -7 1.95) (angle -90) (layer Eco1.User) (width 0.12))
    (fp_arc (start 6.65 1.95) (end 6.65 2.3) (angle -90) (layer Eco1.User) (width 0.12))
    (model ${KISYS3DMOD}/Diode_SMD.3dshapes/D_SOD-123F.wrl
      (at (xyz 0 0 0))
      (scale (xyz 1 1 1))
      (rotate (xyz 0 0 0))
    )
    (model ${KIPRJMOD}/pg1350.pretty/KailhChocPG1350.step
      (offset (xyz 0 4.5 2))
      (scale (xyz 1 1 1))
      (rotate (xyz 0 0 -180))
    )
    (model ${KIPRJMOD}/pg1350.pretty/MBK_Keycap_-_1u.step
      (offset (xyz 0 4.5 6))
      (scale (xyz 1 1 1))
      (rotate (xyz 0 0 0))
    )
  )

  (module pg1350:PG1350 (layer F.Cu) (tedit 608F7572) (tstamp 6039576E)
    (at 47.830753 93.677817 335)
    (path /607925A3)
    (attr smd)
    (fp_text reference "" (at 0 0 335) (layer F.SilkS)
      (effects (font (size 1.27 1.27) (thickness 0.15)))
    )
    (fp_text value 1N4148W (at 0 -8.2 155) (layer F.Fab)
      (effects (font (size 1 1) (thickness 0.15)))
    )
    (fp_line (start -7 1.95) (end -7 -11.35) (layer Eco1.User) (width 0.12))
    (fp_line (start 6.65 2.3) (end -6.65 2.3) (layer Eco1.User) (width 0.12))
    (fp_line (start 7 -11.35) (end 7 1.95) (layer Eco1.User) (width 0.12))
    (fp_line (start -6.65 -11.7) (end 6.65 -11.7) (layer Eco1.User) (width 0.12))
    (fp_arc (start 6.65 -11.35) (end 7 -11.35) (angle -90) (layer Eco1.User) (width 0.12))
    (fp_arc (start -6.65 -11.35) (end -6.65 -11.7) (angle -90) (layer Eco1.User) (width 0.12))
    (fp_arc (start -6.65 1.95) (end -7 1.95) (angle -90) (layer Eco1.User) (width 0.12))
    (fp_arc (start 6.65 1.95) (end 6.65 2.3) (angle -90) (layer Eco1.User) (width 0.12))
    (model ${KISYS3DMOD}/Diode_SMD.3dshapes/D_SOD-123F.wrl
      (at (xyz 0 0 0))
      (scale (xyz 1 1 1))
      (rotate (xyz 0 0 0))
    )
    (model ${KIPRJMOD}/pg1350.pretty/KailhChocPG1350.step
      (offset (xyz 0 4.5 2))
      (scale (xyz 1 1 1))
      (rotate (xyz 0 0 -180))
    )
    (model ${KIPRJMOD}/pg1350.pretty/MBK_Keycap_-_1u.step
      (offset (xyz 0 4.5 6))
      (scale (xyz 1 1 1))
      (rotate (xyz 0 0 0))
    )
  )

  (module pg1350:PG1350 (layer F.Cu) (tedit 608F7572) (tstamp 603956AB)
    (at 241.987559 78.269399 25)
    (path /6083C7E6)
    (attr smd)
    (fp_text reference "" (at 0 0 25) (layer F.SilkS)
      (effects (font (size 1.27 1.27) (thickness 0.15)))
    )
    (fp_text value 1N4148W (at 0 -8.2 25) (layer F.Fab)
      (effects (font (size 1 1) (thickness 0.15)))
    )
    (fp_line (start -7 1.95) (end -7 -11.35) (layer Eco1.User) (width 0.12))
    (fp_line (start 6.65 2.3) (end -6.65 2.3) (layer Eco1.User) (width 0.12))
    (fp_line (start 7 -11.35) (end 7 1.95) (layer Eco1.User) (width 0.12))
    (fp_line (start -6.65 -11.7) (end 6.65 -11.7) (layer Eco1.User) (width 0.12))
    (fp_arc (start 6.65 -11.35) (end 7 -11.35) (angle -90) (layer Eco1.User) (width 0.12))
    (fp_arc (start -6.65 -11.35) (end -6.65 -11.7) (angle -90) (layer Eco1.User) (width 0.12))
    (fp_arc (start -6.65 1.95) (end -7 1.95) (angle -90) (layer Eco1.User) (width 0.12))
    (fp_arc (start 6.65 1.95) (end 6.65 2.3) (angle -90) (layer Eco1.User) (width 0.12))
    (model ${KISYS3DMOD}/Diode_SMD.3dshapes/D_SOD-123F.wrl
      (at (xyz 0 0 0))
      (scale (xyz 1 1 1))
      (rotate (xyz 0 0 0))
    )
    (model ${KIPRJMOD}/pg1350.pretty/KailhChocPG1350.step
      (offset (xyz 0 4.5 2))
      (scale (xyz 1 1 1))
      (rotate (xyz 0 0 -180))
    )
    (model ${KIPRJMOD}/pg1350.pretty/MBK_Keycap_-_1u.step
      (offset (xyz 0 4.5 6))
      (scale (xyz 1 1 1))
      (rotate (xyz 0 0 0))
    )
  )

  (module pg1350:PG1350 (layer F.Cu) (tedit 608F7572) (tstamp 603955EB)
    (at 220.813909 75.453986 25)
    (path /6083C7AE)
    (attr smd)
    (fp_text reference "" (at 0 0 25) (layer F.SilkS)
      (effects (font (size 1.27 1.27) (thickness 0.15)))
    )
    (fp_text value 1N4148W (at 0 -8.2 25) (layer F.Fab)
      (effects (font (size 1 1) (thickness 0.15)))
    )
    (fp_line (start -7 1.95) (end -7 -11.35) (layer Eco1.User) (width 0.12))
    (fp_line (start 6.65 2.3) (end -6.65 2.3) (layer Eco1.User) (width 0.12))
    (fp_line (start 7 -11.35) (end 7 1.95) (layer Eco1.User) (width 0.12))
    (fp_line (start -6.65 -11.7) (end 6.65 -11.7) (layer Eco1.User) (width 0.12))
    (fp_arc (start 6.65 -11.35) (end 7 -11.35) (angle -90) (layer Eco1.User) (width 0.12))
    (fp_arc (start -6.65 -11.35) (end -6.65 -11.7) (angle -90) (layer Eco1.User) (width 0.12))
    (fp_arc (start -6.65 1.95) (end -7 1.95) (angle -90) (layer Eco1.User) (width 0.12))
    (fp_arc (start 6.65 1.95) (end 6.65 2.3) (angle -90) (layer Eco1.User) (width 0.12))
    (model ${KISYS3DMOD}/Diode_SMD.3dshapes/D_SOD-123F.wrl
      (at (xyz 0 0 0))
      (scale (xyz 1 1 1))
      (rotate (xyz 0 0 0))
    )
    (model ${KIPRJMOD}/pg1350.pretty/KailhChocPG1350.step
      (offset (xyz 0 4.5 2))
      (scale (xyz 1 1 1))
      (rotate (xyz 0 0 -180))
    )
    (model ${KIPRJMOD}/pg1350.pretty/MBK_Keycap_-_1u.step
      (offset (xyz 0 4.5 6))
      (scale (xyz 1 1 1))
      (rotate (xyz 0 0 0))
    )
  )

  (module pg1350:PG1350 (layer F.Cu) (tedit 608F7572) (tstamp 60395528)
    (at 201.753349 77.170116 25)
    (path /6083C775)
    (attr smd)
    (fp_text reference "" (at 0 0 25) (layer F.SilkS)
      (effects (font (size 1.27 1.27) (thickness 0.15)))
    )
    (fp_text value 1N4148W (at 0 -8.2 25) (layer F.Fab)
      (effects (font (size 1 1) (thickness 0.15)))
    )
    (fp_line (start -7 1.95) (end -7 -11.35) (layer Eco1.User) (width 0.12))
    (fp_line (start 6.65 2.3) (end -6.65 2.3) (layer Eco1.User) (width 0.12))
    (fp_line (start 7 -11.35) (end 7 1.95) (layer Eco1.User) (width 0.12))
    (fp_line (start -6.65 -11.7) (end 6.65 -11.7) (layer Eco1.User) (width 0.12))
    (fp_arc (start 6.65 -11.35) (end 7 -11.35) (angle -90) (layer Eco1.User) (width 0.12))
    (fp_arc (start -6.65 -11.35) (end -6.65 -11.7) (angle -90) (layer Eco1.User) (width 0.12))
    (fp_arc (start -6.65 1.95) (end -7 1.95) (angle -90) (layer Eco1.User) (width 0.12))
    (fp_arc (start 6.65 1.95) (end 6.65 2.3) (angle -90) (layer Eco1.User) (width 0.12))
    (model ${KISYS3DMOD}/Diode_SMD.3dshapes/D_SOD-123F.wrl
      (at (xyz 0 0 0))
      (scale (xyz 1 1 1))
      (rotate (xyz 0 0 0))
    )
    (model ${KIPRJMOD}/pg1350.pretty/KailhChocPG1350.step
      (offset (xyz 0 4.5 2))
      (scale (xyz 1 1 1))
      (rotate (xyz 0 0 -180))
    )
    (model ${KIPRJMOD}/pg1350.pretty/MBK_Keycap_-_1u.step
      (offset (xyz 0 4.5 6))
      (scale (xyz 1 1 1))
      (rotate (xyz 0 0 0))
    )
  )

  (module pg1350:PG1350 (layer F.Cu) (tedit 608F7572) (tstamp 60395468)
    (at 187.764212 89.761938 25)
    (path /6083C73C)
    (attr smd)
    (fp_text reference "" (at 0 0 25) (layer F.SilkS)
      (effects (font (size 1.27 1.27) (thickness 0.15)))
    )
    (fp_text value 1N4148W (at 0 -8.2 25) (layer F.Fab)
      (effects (font (size 1 1) (thickness 0.15)))
    )
    (fp_line (start -7 1.95) (end -7 -11.35) (layer Eco1.User) (width 0.12))
    (fp_line (start 6.65 2.3) (end -6.65 2.3) (layer Eco1.User) (width 0.12))
    (fp_line (start 7 -11.35) (end 7 1.95) (layer Eco1.User) (width 0.12))
    (fp_line (start -6.65 -11.7) (end 6.65 -11.7) (layer Eco1.User) (width 0.12))
    (fp_arc (start 6.65 -11.35) (end 7 -11.35) (angle -90) (layer Eco1.User) (width 0.12))
    (fp_arc (start -6.65 -11.35) (end -6.65 -11.7) (angle -90) (layer Eco1.User) (width 0.12))
    (fp_arc (start -6.65 1.95) (end -7 1.95) (angle -90) (layer Eco1.User) (width 0.12))
    (fp_arc (start 6.65 1.95) (end 6.65 2.3) (angle -90) (layer Eco1.User) (width 0.12))
    (model ${KISYS3DMOD}/Diode_SMD.3dshapes/D_SOD-123F.wrl
      (at (xyz 0 0 0))
      (scale (xyz 1 1 1))
      (rotate (xyz 0 0 0))
    )
    (model ${KIPRJMOD}/pg1350.pretty/KailhChocPG1350.step
      (offset (xyz 0 4.5 2))
      (scale (xyz 1 1 1))
      (rotate (xyz 0 0 -180))
    )
    (model ${KIPRJMOD}/pg1350.pretty/MBK_Keycap_-_1u.step
      (offset (xyz 0 4.5 6))
      (scale (xyz 1 1 1))
      (rotate (xyz 0 0 0))
    )
  )

  (module pg1350:PG1350 (layer F.Cu) (tedit 608F7572) (tstamp 603953A8)
    (at 124.495607 99.63602 335)
    (path /607C497D)
    (attr smd)
    (fp_text reference "" (at 0 0 335) (layer F.SilkS)
      (effects (font (size 1.27 1.27) (thickness 0.15)))
    )
    (fp_text value 1N4148W (at 0 -8.2 155) (layer F.Fab)
      (effects (font (size 1 1) (thickness 0.15)))
    )
    (fp_line (start -7 1.95) (end -7 -11.35) (layer Eco1.User) (width 0.12))
    (fp_line (start 6.65 2.3) (end -6.65 2.3) (layer Eco1.User) (width 0.12))
    (fp_line (start 7 -11.35) (end 7 1.95) (layer Eco1.User) (width 0.12))
    (fp_line (start -6.65 -11.7) (end 6.65 -11.7) (layer Eco1.User) (width 0.12))
    (fp_arc (start 6.65 -11.35) (end 7 -11.35) (angle -90) (layer Eco1.User) (width 0.12))
    (fp_arc (start -6.65 -11.35) (end -6.65 -11.7) (angle -90) (layer Eco1.User) (width 0.12))
    (fp_arc (start -6.65 1.95) (end -7 1.95) (angle -90) (layer Eco1.User) (width 0.12))
    (fp_arc (start 6.65 1.95) (end 6.65 2.3) (angle -90) (layer Eco1.User) (width 0.12))
    (model ${KISYS3DMOD}/Diode_SMD.3dshapes/D_SOD-123F.wrl
      (at (xyz 0 0 0))
      (scale (xyz 1 1 1))
      (rotate (xyz 0 0 0))
    )
    (model ${KIPRJMOD}/pg1350.pretty/KailhChocPG1350.step
      (offset (xyz 0 4.5 2))
      (scale (xyz 1 1 1))
      (rotate (xyz 0 0 -180))
    )
    (model ${KIPRJMOD}/pg1350.pretty/MBK_Keycap_-_1u.step
      (offset (xyz 0 4.5 6))
      (scale (xyz 1 1 1))
      (rotate (xyz 0 0 0))
    )
  )

  (module pg1350:PG1350 (layer F.Cu) (tedit 608F7572) (tstamp 603952E8)
    (at 109.238612 89.763123 335)
    (path /607BD0FB)
    (attr smd)
    (fp_text reference "" (at 0 0 335) (layer F.SilkS)
      (effects (font (size 1.27 1.27) (thickness 0.15)))
    )
    (fp_text value 1N4148W (at 0 -8.2 155) (layer F.Fab)
      (effects (font (size 1 1) (thickness 0.15)))
    )
    (fp_line (start -7 1.95) (end -7 -11.35) (layer Eco1.User) (width 0.12))
    (fp_line (start 6.65 2.3) (end -6.65 2.3) (layer Eco1.User) (width 0.12))
    (fp_line (start 7 -11.35) (end 7 1.95) (layer Eco1.User) (width 0.12))
    (fp_line (start -6.65 -11.7) (end 6.65 -11.7) (layer Eco1.User) (width 0.12))
    (fp_arc (start 6.65 -11.35) (end 7 -11.35) (angle -90) (layer Eco1.User) (width 0.12))
    (fp_arc (start -6.65 -11.35) (end -6.65 -11.7) (angle -90) (layer Eco1.User) (width 0.12))
    (fp_arc (start -6.65 1.95) (end -7 1.95) (angle -90) (layer Eco1.User) (width 0.12))
    (fp_arc (start 6.65 1.95) (end 6.65 2.3) (angle -90) (layer Eco1.User) (width 0.12))
    (model ${KISYS3DMOD}/Diode_SMD.3dshapes/D_SOD-123F.wrl
      (at (xyz 0 0 0))
      (scale (xyz 1 1 1))
      (rotate (xyz 0 0 0))
    )
    (model ${KIPRJMOD}/pg1350.pretty/KailhChocPG1350.step
      (offset (xyz 0 4.5 2))
      (scale (xyz 1 1 1))
      (rotate (xyz 0 0 -180))
    )
    (model ${KIPRJMOD}/pg1350.pretty/MBK_Keycap_-_1u.step
      (offset (xyz 0 4.5 6))
      (scale (xyz 1 1 1))
      (rotate (xyz 0 0 0))
    )
  )

  (module pg1350:PG1350 (layer F.Cu) (tedit 608F7572) (tstamp 60395222)
    (at 95.24947 77.171301 335)
    (path /607B7F3A)
    (attr smd)
    (fp_text reference "" (at 0 0 335) (layer F.SilkS)
      (effects (font (size 1.27 1.27) (thickness 0.15)))
    )
    (fp_text value 1N4148W (at 0 -8.2 155) (layer F.Fab)
      (effects (font (size 1 1) (thickness 0.15)))
    )
    (fp_line (start -7 1.95) (end -7 -11.35) (layer Eco1.User) (width 0.12))
    (fp_line (start 6.65 2.3) (end -6.65 2.3) (layer Eco1.User) (width 0.12))
    (fp_line (start 7 -11.35) (end 7 1.95) (layer Eco1.User) (width 0.12))
    (fp_line (start -6.65 -11.7) (end 6.65 -11.7) (layer Eco1.User) (width 0.12))
    (fp_arc (start 6.65 -11.35) (end 7 -11.35) (angle -90) (layer Eco1.User) (width 0.12))
    (fp_arc (start -6.65 -11.35) (end -6.65 -11.7) (angle -90) (layer Eco1.User) (width 0.12))
    (fp_arc (start -6.65 1.95) (end -7 1.95) (angle -90) (layer Eco1.User) (width 0.12))
    (fp_arc (start 6.65 1.95) (end 6.65 2.3) (angle -90) (layer Eco1.User) (width 0.12))
    (model ${KISYS3DMOD}/Diode_SMD.3dshapes/D_SOD-123F.wrl
      (at (xyz 0 0 0))
      (scale (xyz 1 1 1))
      (rotate (xyz 0 0 0))
    )
    (model ${KIPRJMOD}/pg1350.pretty/KailhChocPG1350.step
      (offset (xyz 0 4.5 2))
      (scale (xyz 1 1 1))
      (rotate (xyz 0 0 -180))
    )
    (model ${KIPRJMOD}/pg1350.pretty/MBK_Keycap_-_1u.step
      (offset (xyz 0 4.5 6))
      (scale (xyz 1 1 1))
      (rotate (xyz 0 0 0))
    )
  )

  (module pg1350:PG1350 (layer F.Cu) (tedit 608F7572) (tstamp 6039515F)
    (at 76.188912 75.455172 335)
    (path /607A34E1)
    (attr smd)
    (fp_text reference "" (at 0 0 335) (layer F.SilkS)
      (effects (font (size 1.27 1.27) (thickness 0.15)))
    )
    (fp_text value 1N4148W (at 0 -8.2 155) (layer F.Fab)
      (effects (font (size 1 1) (thickness 0.15)))
    )
    (fp_line (start -7 1.95) (end -7 -11.35) (layer Eco1.User) (width 0.12))
    (fp_line (start 6.65 2.3) (end -6.65 2.3) (layer Eco1.User) (width 0.12))
    (fp_line (start 7 -11.35) (end 7 1.95) (layer Eco1.User) (width 0.12))
    (fp_line (start -6.65 -11.7) (end 6.65 -11.7) (layer Eco1.User) (width 0.12))
    (fp_arc (start 6.65 -11.35) (end 7 -11.35) (angle -90) (layer Eco1.User) (width 0.12))
    (fp_arc (start -6.65 -11.35) (end -6.65 -11.7) (angle -90) (layer Eco1.User) (width 0.12))
    (fp_arc (start -6.65 1.95) (end -7 1.95) (angle -90) (layer Eco1.User) (width 0.12))
    (fp_arc (start 6.65 1.95) (end 6.65 2.3) (angle -90) (layer Eco1.User) (width 0.12))
    (model ${KISYS3DMOD}/Diode_SMD.3dshapes/D_SOD-123F.wrl
      (at (xyz 0 0 0))
      (scale (xyz 1 1 1))
      (rotate (xyz 0 0 0))
    )
    (model ${KIPRJMOD}/pg1350.pretty/KailhChocPG1350.step
      (offset (xyz 0 4.5 2))
      (scale (xyz 1 1 1))
      (rotate (xyz 0 0 -180))
    )
    (model ${KIPRJMOD}/pg1350.pretty/MBK_Keycap_-_1u.step
      (offset (xyz 0 4.5 6))
      (scale (xyz 1 1 1))
      (rotate (xyz 0 0 0))
    )
  )

  (module pg1350:PG1350 (layer F.Cu) (tedit 608F7572) (tstamp 60395099)
    (at 55.015263 78.270584 335)
    (path /6078A5A8)
    (attr smd)
    (fp_text reference "" (at 0 0 335) (layer F.SilkS)
      (effects (font (size 1.27 1.27) (thickness 0.15)))
    )
    (fp_text value 1N4148W (at 0 -8.2 155) (layer F.Fab)
      (effects (font (size 1 1) (thickness 0.15)))
    )
    (fp_line (start -7 1.95) (end -7 -11.35) (layer Eco1.User) (width 0.12))
    (fp_line (start 6.65 2.3) (end -6.65 2.3) (layer Eco1.User) (width 0.12))
    (fp_line (start 7 -11.35) (end 7 1.95) (layer Eco1.User) (width 0.12))
    (fp_line (start -6.65 -11.7) (end 6.65 -11.7) (layer Eco1.User) (width 0.12))
    (fp_arc (start 6.65 -11.35) (end 7 -11.35) (angle -90) (layer Eco1.User) (width 0.12))
    (fp_arc (start -6.65 -11.35) (end -6.65 -11.7) (angle -90) (layer Eco1.User) (width 0.12))
    (fp_arc (start -6.65 1.95) (end -7 1.95) (angle -90) (layer Eco1.User) (width 0.12))
    (fp_arc (start 6.65 1.95) (end 6.65 2.3) (angle -90) (layer Eco1.User) (width 0.12))
    (model ${KISYS3DMOD}/Diode_SMD.3dshapes/D_SOD-123F.wrl
      (at (xyz 0 0 0))
      (scale (xyz 1 1 1))
      (rotate (xyz 0 0 0))
    )
    (model ${KIPRJMOD}/pg1350.pretty/KailhChocPG1350.step
      (offset (xyz 0 4.5 2))
      (scale (xyz 1 1 1))
      (rotate (xyz 0 0 -180))
    )
    (model ${KIPRJMOD}/pg1350.pretty/MBK_Keycap_-_1u.step
      (offset (xyz 0 4.5 6))
      (scale (xyz 1 1 1))
      (rotate (xyz 0 0 0))
    )
  )

  (gr_curve (pts (xy 173.011 73.758) (xy 170.598 73.885) (xy 169.201 73.885) (xy 165.941628 73.885)) (layer F.SilkS) (width 0.1) (tstamp 608F9DDC))
  (gr_curve (pts (xy 183.679 75.917) (xy 182.155 70.71) (xy 176.313 73.504) (xy 173.011 73.758)) (layer F.SilkS) (width 0.1) (tstamp 608F9DA2))
  (gr_curve (pts (xy 131.101 73.885) (xy 127.926 73.897771) (xy 125.132 73.885) (xy 122.833036 73.615014)) (layer F.SilkS) (width 0.1) (tstamp 608F9D0B))
  (gr_curve (pts (xy 122.833036 73.615014) (xy 119.417 73.504) (xy 115.988 70.456) (xy 113.448 76.171)) (layer F.SilkS) (width 0.1) (tstamp 608F9D0A))
  (gr_line (start 174.281 83.283) (end 158.787 90.395) (layer F.SilkS) (width 0.15))
  (gr_line (start 173.138 80.87) (end 174.281 83.283) (layer F.SilkS) (width 0.15))
  (gr_curve (pts (xy 120.941 162.023) (xy 122.084 161.769) (xy 123.354 161.515) (xy 125.132 161.642)) (layer F.SilkS) (width 0.1) (tstamp 608F949F))
  (gr_curve (pts (xy 125.132 161.642) (xy 134.149 161.515) (xy 160.184 161.642) (xy 170.725 161.642)) (layer F.SilkS) (width 0.1) (tstamp 608F949E))
  (gr_curve (pts (xy 170.725 161.642) (xy 173.519 161.642) (xy 175.043 161.642) (xy 176.567 162.15)) (layer F.SilkS) (width 0.1) (tstamp 608F94CC))
  (gr_line (start 165.518 159.485267) (end 131.482 159.737) (layer F.SilkS) (width 0.15) (tstamp 608F941B))
  (gr_line (start 165.518 152.368733) (end 163.867 152.368733) (layer F.SilkS) (width 0.15))
  (gr_arc (start 165.518 155.927) (end 165.518 159.485267) (angle -180) (layer F.SilkS) (width 0.15))
  (gr_line (start 131.482 152.371) (end 133.133 152.371) (layer F.SilkS) (width 0.15))
  (gr_arc (start 131.482 156.054) (end 131.482 152.371) (angle -180) (layer F.SilkS) (width 0.15))
  (gr_line (start 133.133 126.59) (end 133.133 152.371) (layer F.SilkS) (width 0.15))
  (gr_line (start 131.482 126.59) (end 133.133 126.59) (layer F.SilkS) (width 0.15))
  (gr_line (start 165.518 119.224) (end 131.482 119.224) (layer F.SilkS) (width 0.15) (tstamp 608F93A3))
  (gr_arc (start 131.482 122.907) (end 131.482 119.224) (angle -180) (layer F.SilkS) (width 0.15))
  (gr_line (start 165.518 126.59) (end 163.867 126.59) (layer F.SilkS) (width 0.15) (tstamp 608F936F))
  (gr_arc (start 165.518 122.907) (end 165.518 126.59) (angle -180) (layer F.SilkS) (width 0.15))
  (gr_line (start 163.867 152.368733) (end 163.867 126.59) (layer F.SilkS) (width 0.15))
  (gr_line (start 175.932 141.957) (end 175.932 134.21) (layer Eco1.User) (width 0.15))
  (gr_line (start 176.567 159.229) (end 176.567 162.15) (layer F.SilkS) (width 0.15))
  (gr_line (start 172.122 155.165) (end 176.567 159.229) (layer F.SilkS) (width 0.15) (tstamp 608F9794))
  (gr_line (start 182.155 142.592) (end 172.122 155.165) (layer F.SilkS) (width 0.15))
  (gr_line (start 158.787 93.189) (end 182.155 142.592) (layer F.SilkS) (width 0.15))
  (gr_line (start 158.787 90.395) (end 158.787 93.189) (layer F.SilkS) (width 0.15))
  (gr_line (start 183.679 75.917) (end 173.138 80.87) (layer F.SilkS) (width 0.15))
  (gr_line (start 165.941628 73.885) (end 131.101 73.885) (layer F.SilkS) (width 0.15) (tstamp 608F8E57))
  (gr_line (start 120.941 158.721) (end 120.941 162.023) (layer F.SilkS) (width 0.15))
  (gr_line (start 124.878 155.419) (end 120.941 158.721) (layer F.SilkS) (width 0.15))
  (gr_line (start 114.972 142.592) (end 124.878 155.419) (layer F.SilkS) (width 0.15))
  (gr_line (start 138.086 92.681) (end 114.972 142.592) (layer F.SilkS) (width 0.15))
  (gr_line (start 138.086 90.268) (end 138.086 92.681) (layer F.SilkS) (width 0.15) (tstamp 608F99FB))
  (gr_line (start 122.592 82.902) (end 138.086 90.268) (layer F.SilkS) (width 0.15))
  (gr_line (start 123.354 80.87) (end 122.592 82.902) (layer F.SilkS) (width 0.15))
  (gr_line (start 113.448 76.171) (end 123.354 80.87) (layer F.SilkS) (width 0.15))
  (gr_line (start 170.725 155.8) (end 170.725 161.650968) (layer Eco1.User) (width 0.15))
  (gr_line (start 164.121 149.196) (end 170.725 155.8) (layer Eco1.User) (width 0.15))
  (gr_line (start 167.677 141.957) (end 164.121 149.196) (layer Eco1.User) (width 0.15))
  (gr_line (start 175.932 141.957) (end 167.677 141.957) (layer Eco1.User) (width 0.15))
  (gr_line (start 158.025 94.84) (end 175.932 134.21) (layer Eco1.User) (width 0.15))
  (gr_line (start 158.025 88.49) (end 158.025 94.84) (layer Eco1.User) (width 0.15))
  (gr_line (start 166.026 84.299) (end 158.025 88.49) (layer Eco1.User) (width 0.15))
  (gr_line (start 166.026 73.908091) (end 166.026 84.299) (layer Eco1.User) (width 0.15))
  (gr_line (start 125.259 156.562) (end 125.259 161.650968) (layer Eco1.User) (width 0.15))
  (gr_line (start 132.117 148.942) (end 125.259 156.562) (layer Eco1.User) (width 0.15))
  (gr_line (start 121.576 133.702) (end 132.117 148.942) (layer Eco1.User) (width 0.15))
  (gr_line (start 138.848 95.983) (end 121.576 133.702) (layer Eco1.User) (width 0.15))
  (gr_line (start 138.848 87.982) (end 138.848 95.983) (layer Eco1.User) (width 0.15))
  (gr_line (start 131.101 84.553) (end 138.848 87.982) (layer Eco1.User) (width 0.15))
  (gr_line (start 131.101 73.908091) (end 131.101 84.553) (layer Eco1.User) (width 0.15) (tstamp 60A09131))
  (gr_line (start 72.947352 58.70557) (end 72.947352 58.70557) (layer Eco1.User) (width 0.1))
  (gr_line (start 72.808 54.708) (end 72.808 54.708) (layer Eco1.User) (width 0.1))
  (gr_line (start 72.774494 58.597479) (end 72.774494 58.597479) (layer Eco1.User) (width 0.1))
  (gr_line (start 168.163253 73.908091) (end 166.026 73.908091) (layer Eco1.User) (width 0.2))
  (gr_line (start 169.11683 73.908091) (end 168.163253 73.908091) (layer Eco1.User) (width 0.2))
  (gr_line (start 170.725 161.650968) (end 173.037243 161.650968) (layer Eco1.User) (width 0.2))
  (gr_line (start 123.964969 161.650968) (end 125.259 161.650968) (layer Eco1.User) (width 0.2))
  (gr_curve (pts (xy 195.359 63.815297) (xy 186.449678 67.575835) (xy 182.448464 73.908091) (xy 169.11683 73.908091)) (layer Eco1.User) (width 0.2))
  (gr_curve (pts (xy 245.328115 62.36942) (xy 243.264832 59.842114) (xy 210.970706 57.225747) (xy 195.359 63.815297)) (layer Eco1.User) (width 0.2))
  (gr_curve (pts (xy 266.501676 107.764277) (xy 259.154345 91.623351) (xy 246.32014 63.584548) (xy 245.328115 62.36942)) (layer Eco1.User) (width 0.2))
  (gr_curve (pts (xy 266.085371 109.477911) (xy 266.835357 109.167995) (xy 266.81524 108.45315) (xy 266.501676 107.764277)) (layer Eco1.User) (width 0.2))
  (gr_curve (pts (xy 228.356546 129.431025) (xy 239.467405 122.090377) (xy 251.129673 115.657896) (xy 266.085371 109.477911)) (layer Eco1.User) (width 0.2))
  (gr_curve (pts (xy 198.862747 152.106949) (xy 207.921471 144.78688) (xy 217.245684 136.771671) (xy 228.356546 129.431025)) (layer Eco1.User) (width 0.2))
  (gr_curve (pts (xy 188.103566 165.681761) (xy 190.918051 162.367111) (xy 197.151287 153.489926) (xy 198.862747 152.106949)) (layer Eco1.User) (width 0.2))
  (gr_curve (pts (xy 185.965813 166.412437) (xy 186.793086 166.633356) (xy 187.272559 166.660445) (xy 188.103566 165.681761)) (layer Eco1.User) (width 0.2))
  (gr_curve (pts (xy 173.037243 161.650968) (xy 178.690565 161.650968) (xy 183.459112 165.743033) (xy 185.965813 166.412437)) (layer Eco1.User) (width 0.2))
  (gr_line (start 128.838959 73.908091) (end 127.885383 73.908091) (layer Eco1.User) (width 0.2))
  (gr_line (start 131.101 73.908091) (end 128.838959 73.908091) (layer Eco1.User) (width 0.2))
  (gr_curve (pts (xy 111.0364 166.412437) (xy 113.5431 165.743033) (xy 118.311648 161.650968) (xy 123.964969 161.650968)) (layer Eco1.User) (width 0.2))
  (gr_curve (pts (xy 108.898647 165.681761) (xy 109.729654 166.660445) (xy 110.209127 166.633356) (xy 111.0364 166.412437)) (layer Eco1.User) (width 0.2))
  (gr_curve (pts (xy 98.139466 152.106949) (xy 99.850926 153.489926) (xy 106.084162 162.367111) (xy 108.898647 165.681761)) (layer Eco1.User) (width 0.2))
  (gr_curve (pts (xy 68.645667 129.431025) (xy 79.756528 136.771671) (xy 89.080741 144.78688) (xy 98.139466 152.106949)) (layer Eco1.User) (width 0.2))
  (gr_curve (pts (xy 30.916855 109.477911) (xy 45.87254 115.657896) (xy 57.534807 122.090377) (xy 68.645667 129.431025)) (layer Eco1.User) (width 0.2))
  (gr_curve (pts (xy 30.500538 107.764277) (xy 30.186963 108.45315) (xy 30.166854 109.167995) (xy 30.916855 109.477911)) (layer Eco1.User) (width 0.2))
  (gr_curve (pts (xy 51.674098 62.36942) (xy 50.682073 63.584548) (xy 37.847872 91.623351) (xy 30.500538 107.764277)) (layer Eco1.User) (width 0.2))
  (gr_curve (pts (xy 101.643213 63.815297) (xy 86.031507 57.225747) (xy 53.73738 59.842114) (xy 51.674098 62.36942)) (layer Eco1.User) (width 0.2))
  (gr_curve (pts (xy 127.885383 73.908091) (xy 114.553749 73.908091) (xy 110.552535 67.575835) (xy 101.643213 63.815297)) (layer Eco1.User) (width 0.2))
  (gr_line (start 169.11683 73.908091) (end 168.163253 73.908091) (layer Eco1.User) (width 0.2))
  (gr_curve (pts (xy 195.359 63.815297) (xy 186.449678 67.575835) (xy 182.448464 73.908091) (xy 169.11683 73.908091)) (layer Eco1.User) (width 0.2))
  (gr_curve (pts (xy 245.328115 62.36942) (xy 243.264832 59.842114) (xy 210.970706 57.225747) (xy 195.359 63.815297)) (layer Eco1.User) (width 0.2))
  (gr_curve (pts (xy 266.501676 107.764277) (xy 259.154345 91.623351) (xy 246.32014 63.584548) (xy 245.328115 62.36942)) (layer Eco1.User) (width 0.2))
  (gr_curve (pts (xy 266.085371 109.477911) (xy 266.835357 109.167995) (xy 266.81524 108.45315) (xy 266.501676 107.764277)) (layer Eco1.User) (width 0.2))
  (gr_curve (pts (xy 228.356546 129.431025) (xy 239.467405 122.090377) (xy 251.129673 115.657896) (xy 266.085371 109.477911)) (layer Eco1.User) (width 0.2))
  (gr_curve (pts (xy 198.862747 152.106949) (xy 207.921471 144.78688) (xy 217.245684 136.771671) (xy 228.356546 129.431025)) (layer Eco1.User) (width 0.2))
  (gr_curve (pts (xy 188.103566 165.681761) (xy 190.918051 162.367111) (xy 197.151287 153.489926) (xy 198.862747 152.106949)) (layer Eco1.User) (width 0.2))
  (gr_curve (pts (xy 185.965813 166.412437) (xy 186.793086 166.633356) (xy 187.272559 166.660445) (xy 188.103566 165.681761)) (layer Eco1.User) (width 0.2))
  (gr_curve (pts (xy 173.037243 161.650968) (xy 178.690565 161.650968) (xy 183.459112 165.743033) (xy 185.965813 166.412437)) (layer Eco1.User) (width 0.2))
  (gr_line (start 128.838959 73.908091) (end 127.885383 73.908091) (layer Eco1.User) (width 0.2))
  (gr_curve (pts (xy 111.0364 166.412437) (xy 113.5431 165.743033) (xy 118.311648 161.650968) (xy 123.964969 161.650968)) (layer Eco1.User) (width 0.2))
  (gr_curve (pts (xy 108.898647 165.681761) (xy 109.729654 166.660445) (xy 110.209127 166.633356) (xy 111.0364 166.412437)) (layer Eco1.User) (width 0.2))
  (gr_curve (pts (xy 98.139466 152.106949) (xy 99.850926 153.489926) (xy 106.084162 162.367111) (xy 108.898647 165.681761)) (layer Eco1.User) (width 0.2))
  (gr_curve (pts (xy 68.645667 129.431025) (xy 79.756528 136.771671) (xy 89.080741 144.78688) (xy 98.139466 152.106949)) (layer Eco1.User) (width 0.2))
  (gr_curve (pts (xy 30.916855 109.477911) (xy 45.87254 115.657896) (xy 57.534807 122.090377) (xy 68.645667 129.431025)) (layer Eco1.User) (width 0.2))
  (gr_curve (pts (xy 30.500538 107.764277) (xy 30.186963 108.45315) (xy 30.166854 109.167995) (xy 30.916855 109.477911)) (layer Eco1.User) (width 0.2))
  (gr_curve (pts (xy 51.674098 62.36942) (xy 50.682073 63.584548) (xy 37.847872 91.623351) (xy 30.500538 107.764277)) (layer Eco1.User) (width 0.2))
  (gr_curve (pts (xy 101.643213 63.815297) (xy 86.031507 57.225747) (xy 53.73738 59.842114) (xy 51.674098 62.36942)) (layer Eco1.User) (width 0.2))
  (gr_curve (pts (xy 127.885383 73.908091) (xy 114.553749 73.908091) (xy 110.552535 67.575835) (xy 101.643213 63.815297)) (layer Eco1.User) (width 0.2))
  (gr_line (start 168.163253 73.908091) (end 148.501108 73.908091) (layer B.SilkS) (width 0.2))
  (gr_line (start 169.11683 73.908091) (end 168.163253 73.908091) (layer B.SilkS) (width 0.2))
  (gr_line (start 148.501108 161.650968) (end 173.037243 161.650968) (layer B.SilkS) (width 0.2))
  (gr_line (start 123.964969 161.650968) (end 148.501108 161.650968) (layer B.SilkS) (width 0.2))
  (gr_curve (pts (xy 195.359 63.815297) (xy 186.449678 67.575835) (xy 182.448464 73.908091) (xy 169.11683 73.908091)) (layer B.SilkS) (width 0.2))
  (gr_curve (pts (xy 245.328115 62.36942) (xy 243.264832 59.842114) (xy 210.970706 57.225747) (xy 195.359 63.815297)) (layer B.SilkS) (width 0.2))
  (gr_curve (pts (xy 266.501676 107.764277) (xy 259.154345 91.623351) (xy 246.32014 63.584548) (xy 245.328115 62.36942)) (layer B.SilkS) (width 0.2))
  (gr_curve (pts (xy 266.085371 109.477911) (xy 266.835357 109.167995) (xy 266.81524 108.45315) (xy 266.501676 107.764277)) (layer B.SilkS) (width 0.2))
  (gr_curve (pts (xy 228.356546 129.431025) (xy 239.467405 122.090377) (xy 251.129673 115.657896) (xy 266.085371 109.477911)) (layer B.SilkS) (width 0.2))
  (gr_curve (pts (xy 198.862747 152.106949) (xy 207.921471 144.78688) (xy 217.245684 136.771671) (xy 228.356546 129.431025)) (layer B.SilkS) (width 0.2))
  (gr_curve (pts (xy 188.103566 165.681761) (xy 190.918051 162.367111) (xy 197.151287 153.489926) (xy 198.862747 152.106949)) (layer B.SilkS) (width 0.2))
  (gr_curve (pts (xy 185.965813 166.412437) (xy 186.793086 166.633356) (xy 187.272559 166.660445) (xy 188.103566 165.681761)) (layer B.SilkS) (width 0.2))
  (gr_curve (pts (xy 173.037243 161.650968) (xy 178.690565 161.650968) (xy 183.459112 165.743033) (xy 185.965813 166.412437)) (layer B.SilkS) (width 0.2))
  (gr_line (start 128.838959 73.908091) (end 127.885383 73.908091) (layer B.SilkS) (width 0.2))
  (gr_line (start 148.501108 73.908091) (end 128.838959 73.908091) (layer B.SilkS) (width 0.2))
  (gr_curve (pts (xy 111.0364 166.412437) (xy 113.5431 165.743033) (xy 118.311648 161.650968) (xy 123.964969 161.650968)) (layer B.SilkS) (width 0.2))
  (gr_curve (pts (xy 108.898647 165.681761) (xy 109.729654 166.660445) (xy 110.209127 166.633356) (xy 111.0364 166.412437)) (layer B.SilkS) (width 0.2))
  (gr_curve (pts (xy 98.139466 152.106949) (xy 99.850926 153.489926) (xy 106.084162 162.367111) (xy 108.898647 165.681761)) (layer B.SilkS) (width 0.2))
  (gr_curve (pts (xy 68.645667 129.431025) (xy 79.756528 136.771671) (xy 89.080741 144.78688) (xy 98.139466 152.106949)) (layer B.SilkS) (width 0.2))
  (gr_curve (pts (xy 30.916855 109.477911) (xy 45.87254 115.657896) (xy 57.534807 122.090377) (xy 68.645667 129.431025)) (layer B.SilkS) (width 0.2))
  (gr_curve (pts (xy 30.500538 107.764277) (xy 30.186963 108.45315) (xy 30.166854 109.167995) (xy 30.916855 109.477911)) (layer B.SilkS) (width 0.2))
  (gr_curve (pts (xy 51.674098 62.36942) (xy 50.682073 63.584548) (xy 37.847872 91.623351) (xy 30.500538 107.764277)) (layer B.SilkS) (width 0.2))
  (gr_curve (pts (xy 101.643213 63.815297) (xy 86.031507 57.225747) (xy 53.73738 59.842114) (xy 51.674098 62.36942)) (layer B.SilkS) (width 0.2))
  (gr_curve (pts (xy 127.885383 73.908091) (xy 114.553749 73.908091) (xy 110.552535 67.575835) (xy 101.643213 63.815297)) (layer B.SilkS) (width 0.2))
  (gr_line (start 168.163253 73.908091) (end 148.501108 73.908091) (layer B.SilkS) (width 0.2))
  (gr_line (start 169.11683 73.908091) (end 168.163253 73.908091) (layer B.SilkS) (width 0.2))
  (gr_line (start 148.501108 161.650968) (end 173.037243 161.650968) (layer B.SilkS) (width 0.2))
  (gr_line (start 123.964969 161.650968) (end 148.501108 161.650968) (layer B.SilkS) (width 0.2))
  (gr_curve (pts (xy 195.359 63.815297) (xy 186.449678 67.575835) (xy 182.448464 73.908091) (xy 169.11683 73.908091)) (layer B.SilkS) (width 0.2))
  (gr_curve (pts (xy 245.328115 62.36942) (xy 243.264832 59.842114) (xy 210.970706 57.225747) (xy 195.359 63.815297)) (layer B.SilkS) (width 0.2))
  (gr_curve (pts (xy 266.501676 107.764277) (xy 259.154345 91.623351) (xy 246.32014 63.584548) (xy 245.328115 62.36942)) (layer B.SilkS) (width 0.2))
  (gr_curve (pts (xy 266.085371 109.477911) (xy 266.835357 109.167995) (xy 266.81524 108.45315) (xy 266.501676 107.764277)) (layer B.SilkS) (width 0.2))
  (gr_curve (pts (xy 228.356546 129.431025) (xy 239.467405 122.090377) (xy 251.129673 115.657896) (xy 266.085371 109.477911)) (layer B.SilkS) (width 0.2))
  (gr_curve (pts (xy 198.862747 152.106949) (xy 207.921471 144.78688) (xy 217.245684 136.771671) (xy 228.356546 129.431025)) (layer B.SilkS) (width 0.2))
  (gr_curve (pts (xy 188.103566 165.681761) (xy 190.918051 162.367111) (xy 197.151287 153.489926) (xy 198.862747 152.106949)) (layer B.SilkS) (width 0.2))
  (gr_curve (pts (xy 185.965813 166.412437) (xy 186.793086 166.633356) (xy 187.272559 166.660445) (xy 188.103566 165.681761)) (layer B.SilkS) (width 0.2))
  (gr_curve (pts (xy 173.037243 161.650968) (xy 178.690565 161.650968) (xy 183.459112 165.743033) (xy 185.965813 166.412437)) (layer B.SilkS) (width 0.2))
  (gr_line (start 128.838959 73.908091) (end 127.885383 73.908091) (layer B.SilkS) (width 0.2))
  (gr_line (start 148.501108 73.908091) (end 128.838959 73.908091) (layer B.SilkS) (width 0.2))
  (gr_curve (pts (xy 111.0364 166.412437) (xy 113.5431 165.743033) (xy 118.311648 161.650968) (xy 123.964969 161.650968)) (layer B.SilkS) (width 0.2))
  (gr_curve (pts (xy 108.898647 165.681761) (xy 109.729654 166.660445) (xy 110.209127 166.633356) (xy 111.0364 166.412437)) (layer B.SilkS) (width 0.2))
  (gr_curve (pts (xy 98.139466 152.106949) (xy 99.850926 153.489926) (xy 106.084162 162.367111) (xy 108.898647 165.681761)) (layer B.SilkS) (width 0.2))
  (gr_curve (pts (xy 68.645667 129.431025) (xy 79.756528 136.771671) (xy 89.080741 144.78688) (xy 98.139466 152.106949)) (layer B.SilkS) (width 0.2))
  (gr_curve (pts (xy 30.916855 109.477911) (xy 45.87254 115.657896) (xy 57.534807 122.090377) (xy 68.645667 129.431025)) (layer B.SilkS) (width 0.2))
  (gr_curve (pts (xy 30.500538 107.764277) (xy 30.186963 108.45315) (xy 30.166854 109.167995) (xy 30.916855 109.477911)) (layer B.SilkS) (width 0.2))
  (gr_curve (pts (xy 51.674098 62.36942) (xy 50.682073 63.584548) (xy 37.847872 91.623351) (xy 30.500538 107.764277)) (layer B.SilkS) (width 0.2))
  (gr_curve (pts (xy 101.643213 63.815297) (xy 86.031507 57.225747) (xy 53.73738 59.842114) (xy 51.674098 62.36942)) (layer B.SilkS) (width 0.2))
  (gr_curve (pts (xy 127.885383 73.908091) (xy 114.553749 73.908091) (xy 110.552535 67.575835) (xy 101.643213 63.815297)) (layer B.SilkS) (width 0.2))
  (gr_line (start 168.163253 73.908091) (end 148.501108 73.908091) (layer Edge.Cuts) (width 0.2))
  (gr_line (start 169.11683 73.908091) (end 168.163253 73.908091) (layer Edge.Cuts) (width 0.2))
  (gr_line (start 148.501108 161.650968) (end 173.037243 161.650968) (layer Edge.Cuts) (width 0.2))
  (gr_line (start 123.964969 161.650968) (end 148.501108 161.650968) (layer Edge.Cuts) (width 0.2))
  (gr_curve (pts (xy 195.359 63.815297) (xy 186.449678 67.575835) (xy 182.448464 73.908091) (xy 169.11683 73.908091)) (layer Edge.Cuts) (width 0.2))
  (gr_curve (pts (xy 245.328115 62.36942) (xy 243.264832 59.842114) (xy 210.970706 57.225747) (xy 195.359 63.815297)) (layer Edge.Cuts) (width 0.2))
  (gr_curve (pts (xy 266.501676 107.764277) (xy 259.154345 91.623351) (xy 246.32014 63.584548) (xy 245.328115 62.36942)) (layer Edge.Cuts) (width 0.2))
  (gr_curve (pts (xy 266.085371 109.477911) (xy 266.835357 109.167995) (xy 266.81524 108.45315) (xy 266.501676 107.764277)) (layer Edge.Cuts) (width 0.2))
  (gr_curve (pts (xy 228.356546 129.431025) (xy 239.467405 122.090377) (xy 251.129673 115.657896) (xy 266.085371 109.477911)) (layer Edge.Cuts) (width 0.2))
  (gr_curve (pts (xy 198.862747 152.106949) (xy 207.921471 144.78688) (xy 217.245684 136.771671) (xy 228.356546 129.431025)) (layer Edge.Cuts) (width 0.2))
  (gr_curve (pts (xy 188.103566 165.681761) (xy 190.918051 162.367111) (xy 197.151287 153.489926) (xy 198.862747 152.106949)) (layer Edge.Cuts) (width 0.2))
  (gr_curve (pts (xy 185.965813 166.412437) (xy 186.793086 166.633356) (xy 187.272559 166.660445) (xy 188.103566 165.681761)) (layer Edge.Cuts) (width 0.2))
  (gr_curve (pts (xy 173.037243 161.650968) (xy 178.690565 161.650968) (xy 183.459112 165.743033) (xy 185.965813 166.412437)) (layer Edge.Cuts) (width 0.2))
  (gr_line (start 128.838959 73.908091) (end 127.885383 73.908091) (layer Edge.Cuts) (width 0.2))
  (gr_line (start 148.501108 73.908091) (end 128.838959 73.908091) (layer Edge.Cuts) (width 0.2))
  (gr_curve (pts (xy 111.0364 166.412437) (xy 113.5431 165.743033) (xy 118.311648 161.650968) (xy 123.964969 161.650968)) (layer Edge.Cuts) (width 0.2))
  (gr_curve (pts (xy 108.898647 165.681761) (xy 109.729654 166.660445) (xy 110.209127 166.633356) (xy 111.0364 166.412437)) (layer Edge.Cuts) (width 0.2))
  (gr_curve (pts (xy 98.139466 152.106949) (xy 99.850926 153.489926) (xy 106.084162 162.367111) (xy 108.898647 165.681761)) (layer Edge.Cuts) (width 0.2))
  (gr_curve (pts (xy 68.645667 129.431025) (xy 79.756528 136.771671) (xy 89.080741 144.78688) (xy 98.139466 152.106949)) (layer Edge.Cuts) (width 0.2))
  (gr_curve (pts (xy 30.916855 109.477911) (xy 45.87254 115.657896) (xy 57.534807 122.090377) (xy 68.645667 129.431025)) (layer Edge.Cuts) (width 0.2))
  (gr_curve (pts (xy 30.500538 107.764277) (xy 30.186963 108.45315) (xy 30.166854 109.167995) (xy 30.916855 109.477911)) (layer Edge.Cuts) (width 0.2))
  (gr_curve (pts (xy 51.674098 62.36942) (xy 50.682073 63.584548) (xy 37.847872 91.623351) (xy 30.500538 107.764277)) (layer Edge.Cuts) (width 0.2))
  (gr_curve (pts (xy 101.643213 63.815297) (xy 86.031507 57.225747) (xy 53.73738 59.842114) (xy 51.674098 62.36942)) (layer Edge.Cuts) (width 0.2))
  (gr_curve (pts (xy 127.885383 73.908091) (xy 114.553749 73.908091) (xy 110.552535 67.575835) (xy 101.643213 63.815297)) (layer Edge.Cuts) (width 0.2))
  (gr_line (start 168.163253 73.908091) (end 148.501108 73.908091) (layer Edge.Cuts) (width 0.2))
  (gr_line (start 169.11683 73.908091) (end 168.163253 73.908091) (layer Edge.Cuts) (width 0.2))
  (gr_line (start 148.501108 161.650968) (end 173.037243 161.650968) (layer Edge.Cuts) (width 0.2))
  (gr_line (start 123.964969 161.650968) (end 148.501108 161.650968) (layer Edge.Cuts) (width 0.2))
  (gr_curve (pts (xy 195.359 63.815297) (xy 186.449678 67.575835) (xy 182.448464 73.908091) (xy 169.11683 73.908091)) (layer Edge.Cuts) (width 0.2))
  (gr_curve (pts (xy 245.328115 62.36942) (xy 243.264832 59.842114) (xy 210.970706 57.225747) (xy 195.359 63.815297)) (layer Edge.Cuts) (width 0.2))
  (gr_curve (pts (xy 266.501676 107.764277) (xy 259.154345 91.623351) (xy 246.32014 63.584548) (xy 245.328115 62.36942)) (layer Edge.Cuts) (width 0.2))
  (gr_curve (pts (xy 266.085371 109.477911) (xy 266.835357 109.167995) (xy 266.81524 108.45315) (xy 266.501676 107.764277)) (layer Edge.Cuts) (width 0.2))
  (gr_curve (pts (xy 228.356546 129.431025) (xy 239.467405 122.090377) (xy 251.129673 115.657896) (xy 266.085371 109.477911)) (layer Edge.Cuts) (width 0.2))
  (gr_curve (pts (xy 198.862747 152.106949) (xy 207.921471 144.78688) (xy 217.245684 136.771671) (xy 228.356546 129.431025)) (layer Edge.Cuts) (width 0.2))
  (gr_curve (pts (xy 188.103566 165.681761) (xy 190.918051 162.367111) (xy 197.151287 153.489926) (xy 198.862747 152.106949)) (layer Edge.Cuts) (width 0.2))
  (gr_curve (pts (xy 185.965813 166.412437) (xy 186.793086 166.633356) (xy 187.272559 166.660445) (xy 188.103566 165.681761)) (layer Edge.Cuts) (width 0.2))
  (gr_curve (pts (xy 173.037243 161.650968) (xy 178.690565 161.650968) (xy 183.459112 165.743033) (xy 185.965813 166.412437)) (layer Edge.Cuts) (width 0.2))
  (gr_line (start 128.838959 73.908091) (end 127.885383 73.908091) (layer Edge.Cuts) (width 0.2))
  (gr_line (start 148.501108 73.908091) (end 128.838959 73.908091) (layer Edge.Cuts) (width 0.2))
  (gr_curve (pts (xy 111.0364 166.412437) (xy 113.5431 165.743033) (xy 118.311648 161.650968) (xy 123.964969 161.650968)) (layer Edge.Cuts) (width 0.2))
  (gr_curve (pts (xy 108.898647 165.681761) (xy 109.729654 166.660445) (xy 110.209127 166.633356) (xy 111.0364 166.412437)) (layer Edge.Cuts) (width 0.2))
  (gr_curve (pts (xy 98.139466 152.106949) (xy 99.850926 153.489926) (xy 106.084162 162.367111) (xy 108.898647 165.681761)) (layer Edge.Cuts) (width 0.2))
  (gr_curve (pts (xy 68.645667 129.431025) (xy 79.756528 136.771671) (xy 89.080741 144.78688) (xy 98.139466 152.106949)) (layer Edge.Cuts) (width 0.2))
  (gr_curve (pts (xy 30.916855 109.477911) (xy 45.87254 115.657896) (xy 57.534807 122.090377) (xy 68.645667 129.431025)) (layer Edge.Cuts) (width 0.2))
  (gr_curve (pts (xy 30.500538 107.764277) (xy 30.186963 108.45315) (xy 30.166854 109.167995) (xy 30.916855 109.477911)) (layer Edge.Cuts) (width 0.2))
  (gr_curve (pts (xy 51.674098 62.36942) (xy 50.682073 63.584548) (xy 37.847872 91.623351) (xy 30.500538 107.764277)) (layer Edge.Cuts) (width 0.2))
  (gr_curve (pts (xy 101.643213 63.815297) (xy 86.031507 57.225747) (xy 53.73738 59.842114) (xy 51.674098 62.36942)) (layer Edge.Cuts) (width 0.2))
  (gr_curve (pts (xy 127.885383 73.908091) (xy 114.553749 73.908091) (xy 110.552535 67.575835) (xy 101.643213 63.815297)) (layer Edge.Cuts) (width 0.2))

)
